/*
WARNING: Do NOT edit the input and output ports in this file in a text
editor if you plan to continue editing the block that represents it in
the Block Editor! File corruption is VERY likely to occur.
*/
/*
Copyright (C) 1991-2013 Altera Corporation
Your use of Altera Corporation's design tools, logic functions 
and other software and tools, and its AMPP partner logic 
functions, and any output files from any of the foregoing 
(including device programming or simulation files), and any 
associated documentation or information are expressly subject 
to the terms and conditions of the Altera Program License 
Subscription Agreement, Altera MegaCore Function License 
Agreement, or other applicable license agreement, including, 
without limitation, that your use is for the sole purpose of 
programming logic devices manufactured by Altera and sold by 
Altera or its authorized distributors.  Please refer to the 
applicable agreement for further details.
*/
//#pragma file_not_in_maxplusii_format
(header "graphic" (version "1.4"))
(properties
	(page_setup "header_footer\nDate: %D\n%f\nProject: %j\n\nPage %p of %P\nRevision: %a\nmargin\n1.000:1.000:1.000:1.000\n1\n1\n1\norientation\n1\npaper_size\n0\npaper_source\n12\nfit_page_wide\n2\nfit_page_tall\n2\n")
)
(pin
	(input)
	(rect 40 800 208 816)
	(text "INPUT" (rect 133 0 161 10)(font "Arial" (font_size 6)))
	(text "CAM1_D[7]" (rect 5 0 61 12)(font "Arial" ))
	(pt 168 8)
	(drawing
		(line (pt 92 12)(pt 117 12))
		(line (pt 92 4)(pt 117 4))
		(line (pt 121 8)(pt 168 8))
		(line (pt 92 12)(pt 92 4))
		(line (pt 117 4)(pt 121 8))
		(line (pt 117 12)(pt 121 8))
	)
	(text "VCC" (rect 136 7 156 17)(font "Arial" (font_size 6)))
	(annotation_block (location)(rect -8 144 48 160))
)
(pin
	(input)
	(rect 40 688 208 704)
	(text "INPUT" (rect 133 0 161 10)(font "Arial" (font_size 6)))
	(text "CAM1_D[0]" (rect 5 0 61 12)(font "Arial" ))
	(pt 168 8)
	(drawing
		(line (pt 92 12)(pt 117 12))
		(line (pt 92 4)(pt 117 4))
		(line (pt 121 8)(pt 168 8))
		(line (pt 92 12)(pt 92 4))
		(line (pt 117 4)(pt 121 8))
		(line (pt 117 12)(pt 121 8))
	)
	(text "VCC" (rect 136 7 156 17)(font "Arial" (font_size 6)))
	(annotation_block (location)(rect -8 32 48 48))
)
(pin
	(input)
	(rect 40 720 208 736)
	(text "INPUT" (rect 133 0 161 10)(font "Arial" (font_size 6)))
	(text "CAM1_D[2]" (rect 5 0 61 12)(font "Arial" ))
	(pt 168 8)
	(drawing
		(line (pt 92 12)(pt 117 12))
		(line (pt 92 4)(pt 117 4))
		(line (pt 121 8)(pt 168 8))
		(line (pt 92 12)(pt 92 4))
		(line (pt 117 4)(pt 121 8))
		(line (pt 117 12)(pt 121 8))
	)
	(text "VCC" (rect 136 7 156 17)(font "Arial" (font_size 6)))
	(annotation_block (location)(rect -8 64 48 80))
)
(pin
	(input)
	(rect 40 736 208 752)
	(text "INPUT" (rect 133 0 161 10)(font "Arial" (font_size 6)))
	(text "CAM1_D[3]" (rect 5 0 61 12)(font "Arial" ))
	(pt 168 8)
	(drawing
		(line (pt 92 12)(pt 117 12))
		(line (pt 92 4)(pt 117 4))
		(line (pt 121 8)(pt 168 8))
		(line (pt 92 12)(pt 92 4))
		(line (pt 117 4)(pt 121 8))
		(line (pt 117 12)(pt 121 8))
	)
	(text "VCC" (rect 136 7 156 17)(font "Arial" (font_size 6)))
	(annotation_block (location)(rect -8 80 48 96))
)
(pin
	(input)
	(rect 40 752 208 768)
	(text "INPUT" (rect 133 0 161 10)(font "Arial" (font_size 6)))
	(text "CAM1_D[4]" (rect 5 0 61 12)(font "Arial" ))
	(pt 168 8)
	(drawing
		(line (pt 92 12)(pt 117 12))
		(line (pt 92 4)(pt 117 4))
		(line (pt 121 8)(pt 168 8))
		(line (pt 92 12)(pt 92 4))
		(line (pt 117 4)(pt 121 8))
		(line (pt 117 12)(pt 121 8))
	)
	(text "VCC" (rect 136 7 156 17)(font "Arial" (font_size 6)))
	(annotation_block (location)(rect -8 96 48 112))
)
(pin
	(input)
	(rect 40 768 208 784)
	(text "INPUT" (rect 133 0 161 10)(font "Arial" (font_size 6)))
	(text "CAM1_D[5]" (rect 5 0 61 12)(font "Arial" ))
	(pt 168 8)
	(drawing
		(line (pt 92 12)(pt 117 12))
		(line (pt 92 4)(pt 117 4))
		(line (pt 121 8)(pt 168 8))
		(line (pt 92 12)(pt 92 4))
		(line (pt 117 4)(pt 121 8))
		(line (pt 117 12)(pt 121 8))
	)
	(text "VCC" (rect 136 7 156 17)(font "Arial" (font_size 6)))
	(annotation_block (location)(rect -16 112 40 128))
)
(pin
	(input)
	(rect 40 784 208 800)
	(text "INPUT" (rect 133 0 161 10)(font "Arial" (font_size 6)))
	(text "CAM1_D[6]" (rect 5 0 61 12)(font "Arial" ))
	(pt 168 8)
	(drawing
		(line (pt 92 12)(pt 117 12))
		(line (pt 92 4)(pt 117 4))
		(line (pt 121 8)(pt 168 8))
		(line (pt 92 12)(pt 92 4))
		(line (pt 117 4)(pt 121 8))
		(line (pt 117 12)(pt 121 8))
	)
	(text "VCC" (rect 136 7 156 17)(font "Arial" (font_size 6)))
	(annotation_block (location)(rect -8 128 48 144))
)
(pin
	(input)
	(rect 40 832 208 848)
	(text "INPUT" (rect 133 0 161 10)(font "Arial" (font_size 6)))
	(text "CAM1_PCLK" (rect 5 0 68 12)(font "Arial" ))
	(pt 168 8)
	(drawing
		(line (pt 92 12)(pt 117 12))
		(line (pt 92 4)(pt 117 4))
		(line (pt 121 8)(pt 168 8))
		(line (pt 92 12)(pt 92 4))
		(line (pt 117 4)(pt 121 8))
		(line (pt 117 12)(pt 121 8))
	)
	(text "VCC" (rect 136 7 156 17)(font "Arial" (font_size 6)))
	(annotation_block (location)(rect -8 176 48 192))
)
(pin
	(input)
	(rect 40 848 208 864)
	(text "INPUT" (rect 133 0 161 10)(font "Arial" (font_size 6)))
	(text "CAM1_VSYNC" (rect 5 0 79 12)(font "Arial" ))
	(pt 168 8)
	(drawing
		(line (pt 92 12)(pt 117 12))
		(line (pt 92 4)(pt 117 4))
		(line (pt 121 8)(pt 168 8))
		(line (pt 92 12)(pt 92 4))
		(line (pt 117 4)(pt 121 8))
		(line (pt 117 12)(pt 121 8))
	)
	(text "VCC" (rect 136 7 156 17)(font "Arial" (font_size 6)))
	(annotation_block (location)(rect -8 192 48 208))
)
(pin
	(input)
	(rect 40 864 208 880)
	(text "INPUT" (rect 133 0 161 10)(font "Arial" (font_size 6)))
	(text "CAM1_HREF" (rect 5 0 71 12)(font "Arial" ))
	(pt 168 8)
	(drawing
		(line (pt 92 12)(pt 117 12))
		(line (pt 92 4)(pt 117 4))
		(line (pt 121 8)(pt 168 8))
		(line (pt 92 12)(pt 92 4))
		(line (pt 117 4)(pt 121 8))
		(line (pt 117 12)(pt 121 8))
	)
	(text "VCC" (rect 136 7 156 17)(font "Arial" (font_size 6)))
	(annotation_block (location)(rect -8 208 48 224))
)
(pin
	(input)
	(rect 40 912 208 928)
	(text "INPUT" (rect 133 0 161 10)(font "Arial" (font_size 6)))
	(text "CAM2_D[0]" (rect 5 0 61 12)(font "Arial" ))
	(pt 168 8)
	(drawing
		(line (pt 92 12)(pt 117 12))
		(line (pt 92 4)(pt 117 4))
		(line (pt 121 8)(pt 168 8))
		(line (pt 92 12)(pt 92 4))
		(line (pt 117 4)(pt 121 8))
		(line (pt 117 12)(pt 121 8))
	)
	(text "VCC" (rect 136 7 156 17)(font "Arial" (font_size 6)))
	(annotation_block (location)(rect -8 256 40 272))
)
(pin
	(input)
	(rect 40 928 208 944)
	(text "INPUT" (rect 133 0 161 10)(font "Arial" (font_size 6)))
	(text "CAM2_D[1]" (rect 5 0 61 12)(font "Arial" ))
	(pt 168 8)
	(drawing
		(line (pt 92 12)(pt 117 12))
		(line (pt 92 4)(pt 117 4))
		(line (pt 121 8)(pt 168 8))
		(line (pt 92 12)(pt 92 4))
		(line (pt 117 4)(pt 121 8))
		(line (pt 117 12)(pt 121 8))
	)
	(text "VCC" (rect 136 7 156 17)(font "Arial" (font_size 6)))
	(annotation_block (location)(rect -8 272 40 288))
)
(pin
	(input)
	(rect 40 944 208 960)
	(text "INPUT" (rect 133 0 161 10)(font "Arial" (font_size 6)))
	(text "CAM2_D[2]" (rect 5 0 61 12)(font "Arial" ))
	(pt 168 8)
	(drawing
		(line (pt 92 12)(pt 117 12))
		(line (pt 92 4)(pt 117 4))
		(line (pt 121 8)(pt 168 8))
		(line (pt 92 12)(pt 92 4))
		(line (pt 117 4)(pt 121 8))
		(line (pt 117 12)(pt 121 8))
	)
	(text "VCC" (rect 136 7 156 17)(font "Arial" (font_size 6)))
	(annotation_block (location)(rect -8 288 40 304))
)
(pin
	(input)
	(rect 40 960 208 976)
	(text "INPUT" (rect 133 0 161 10)(font "Arial" (font_size 6)))
	(text "CAM2_D[3]" (rect 5 0 61 12)(font "Arial" ))
	(pt 168 8)
	(drawing
		(line (pt 92 12)(pt 117 12))
		(line (pt 92 4)(pt 117 4))
		(line (pt 121 8)(pt 168 8))
		(line (pt 92 12)(pt 92 4))
		(line (pt 117 4)(pt 121 8))
		(line (pt 117 12)(pt 121 8))
	)
	(text "VCC" (rect 136 7 156 17)(font "Arial" (font_size 6)))
	(annotation_block (location)(rect -8 304 40 320))
)
(pin
	(input)
	(rect 40 1008 208 1024)
	(text "INPUT" (rect 133 0 161 10)(font "Arial" (font_size 6)))
	(text "CAM2_D[6]" (rect 5 0 61 12)(font "Arial" ))
	(pt 168 8)
	(drawing
		(line (pt 92 12)(pt 117 12))
		(line (pt 92 4)(pt 117 4))
		(line (pt 121 8)(pt 168 8))
		(line (pt 92 12)(pt 92 4))
		(line (pt 117 4)(pt 121 8))
		(line (pt 117 12)(pt 121 8))
	)
	(text "VCC" (rect 136 7 156 17)(font "Arial" (font_size 6)))
	(annotation_block (location)(rect -8 352 40 368))
)
(pin
	(input)
	(rect 40 1024 208 1040)
	(text "INPUT" (rect 133 0 161 10)(font "Arial" (font_size 6)))
	(text "CAM2_D[7]" (rect 5 0 61 12)(font "Arial" ))
	(pt 168 8)
	(drawing
		(line (pt 92 12)(pt 117 12))
		(line (pt 92 4)(pt 117 4))
		(line (pt 121 8)(pt 168 8))
		(line (pt 92 12)(pt 92 4))
		(line (pt 117 4)(pt 121 8))
		(line (pt 117 12)(pt 121 8))
	)
	(text "VCC" (rect 136 7 156 17)(font "Arial" (font_size 6)))
	(annotation_block (location)(rect -8 368 40 384))
)
(pin
	(input)
	(rect 40 976 208 992)
	(text "INPUT" (rect 133 0 161 10)(font "Arial" (font_size 6)))
	(text "CAM2_D[4]" (rect 5 0 61 12)(font "Arial" ))
	(pt 168 8)
	(drawing
		(line (pt 92 12)(pt 117 12))
		(line (pt 92 4)(pt 117 4))
		(line (pt 121 8)(pt 168 8))
		(line (pt 92 12)(pt 92 4))
		(line (pt 117 4)(pt 121 8))
		(line (pt 117 12)(pt 121 8))
	)
	(text "VCC" (rect 136 7 156 17)(font "Arial" (font_size 6)))
	(annotation_block (location)(rect -8 320 40 336))
)
(pin
	(input)
	(rect 40 992 208 1008)
	(text "INPUT" (rect 133 0 161 10)(font "Arial" (font_size 6)))
	(text "CAM2_D[5]" (rect 5 0 61 12)(font "Arial" ))
	(pt 168 8)
	(drawing
		(line (pt 92 12)(pt 117 12))
		(line (pt 92 4)(pt 117 4))
		(line (pt 121 8)(pt 168 8))
		(line (pt 92 12)(pt 92 4))
		(line (pt 117 4)(pt 121 8))
		(line (pt 117 12)(pt 121 8))
	)
	(text "VCC" (rect 136 7 156 17)(font "Arial" (font_size 6)))
	(annotation_block (location)(rect -8 336 40 352))
)
(pin
	(input)
	(rect 40 1056 208 1072)
	(text "INPUT" (rect 133 0 161 10)(font "Arial" (font_size 6)))
	(text "CAM2_PCLK" (rect 5 0 68 12)(font "Arial" ))
	(pt 168 8)
	(drawing
		(line (pt 92 12)(pt 117 12))
		(line (pt 92 4)(pt 117 4))
		(line (pt 121 8)(pt 168 8))
		(line (pt 92 12)(pt 92 4))
		(line (pt 117 4)(pt 121 8))
		(line (pt 117 12)(pt 121 8))
	)
	(text "VCC" (rect 136 7 156 17)(font "Arial" (font_size 6)))
	(annotation_block (location)(rect -8 400 40 416))
)
(pin
	(input)
	(rect 40 1072 208 1088)
	(text "INPUT" (rect 133 0 161 10)(font "Arial" (font_size 6)))
	(text "CAM2_VSYNC" (rect 5 0 79 12)(font "Arial" ))
	(pt 168 8)
	(drawing
		(line (pt 92 12)(pt 117 12))
		(line (pt 92 4)(pt 117 4))
		(line (pt 121 8)(pt 168 8))
		(line (pt 92 12)(pt 92 4))
		(line (pt 117 4)(pt 121 8))
		(line (pt 117 12)(pt 121 8))
	)
	(text "VCC" (rect 136 7 156 17)(font "Arial" (font_size 6)))
	(annotation_block (location)(rect 0 416 48 432))
)
(pin
	(input)
	(rect 40 1088 208 1104)
	(text "INPUT" (rect 133 0 161 10)(font "Arial" (font_size 6)))
	(text "CAM2_HREF" (rect 5 0 71 12)(font "Arial" ))
	(pt 168 8)
	(drawing
		(line (pt 92 12)(pt 117 12))
		(line (pt 92 4)(pt 117 4))
		(line (pt 121 8)(pt 168 8))
		(line (pt 92 12)(pt 92 4))
		(line (pt 117 4)(pt 121 8))
		(line (pt 117 12)(pt 121 8))
	)
	(text "VCC" (rect 136 7 156 17)(font "Arial" (font_size 6)))
	(annotation_block (location)(rect -8 432 40 448))
)
(pin
	(input)
	(rect 256 1368 456 1384)
	(text "INPUT" (rect 7 0 35 10)(font "Arial" (font_size 6)))
	(text "CIF1_MCLK" (rect 135 0 195 12)(font "Arial" ))
	(pt 0 8)
	(drawing
		(line (pt 76 12)(pt 51 12))
		(line (pt 76 4)(pt 51 4))
		(line (pt 47 8)(pt 0 8))
		(line (pt 76 12)(pt 76 4))
		(line (pt 51 4)(pt 47 8))
		(line (pt 51 12)(pt 47 8))
	)
	(flipy)
	(text "VCC" (rect 12 7 32 17)(font "Arial" (font_size 6)))
	(annotation_block (location)(rect 496 656 576 688))
)
(pin
	(input)
	(rect 256 1400 471 1416)
	(text "INPUT" (rect 7 0 35 10)(font "Arial" (font_size 6)))
	(text "CIF1_I2C_CLK" (rect 135 0 210 12)(font "Arial" ))
	(pt 0 8)
	(drawing
		(line (pt 76 12)(pt 51 12))
		(line (pt 76 4)(pt 51 4))
		(line (pt 47 8)(pt 0 8))
		(line (pt 76 12)(pt 76 4))
		(line (pt 51 4)(pt 47 8))
		(line (pt 51 12)(pt 47 8))
	)
	(flipy)
	(text "VCC" (rect 12 7 32 17)(font "Arial" (font_size 6)))
	(annotation_block (location)(rect 568 720 648 752))
)
(pin
	(input)
	(rect 256 1416 478 1432)
	(text "INPUT" (rect 7 0 35 10)(font "Arial" (font_size 6)))
	(text "CIF1_I2C_DATA" (rect 135 0 218 12)(font "Arial" ))
	(pt 0 8)
	(drawing
		(line (pt 76 12)(pt 51 12))
		(line (pt 76 4)(pt 51 4))
		(line (pt 47 8)(pt 0 8))
		(line (pt 76 12)(pt 76 4))
		(line (pt 51 4)(pt 47 8))
		(line (pt 51 12)(pt 47 8))
	)
	(flipy)
	(text "VCC" (rect 12 7 32 17)(font "Arial" (font_size 6)))
	(annotation_block (location)(rect 568 752 648 784))
)
(pin
	(input)
	(rect 256 1384 456 1400)
	(text "INPUT" (rect 7 0 35 10)(font "Arial" (font_size 6)))
	(text "CIF2_MCLK" (rect 135 0 195 12)(font "Arial" ))
	(pt 0 8)
	(drawing
		(line (pt 76 12)(pt 51 12))
		(line (pt 76 4)(pt 51 4))
		(line (pt 47 8)(pt 0 8))
		(line (pt 76 12)(pt 76 4))
		(line (pt 51 4)(pt 47 8))
		(line (pt 51 12)(pt 47 8))
	)
	(flipy)
	(text "VCC" (rect 12 7 32 17)(font "Arial" (font_size 6)))
	(annotation_block (location)(rect 568 688 648 720))
)
(pin
	(input)
	(rect 256 1432 471 1448)
	(text "INPUT" (rect 7 0 35 10)(font "Arial" (font_size 6)))
	(text "CIF2_I2C_CLK" (rect 135 0 210 12)(font "Arial" ))
	(pt 0 8)
	(drawing
		(line (pt 76 12)(pt 51 12))
		(line (pt 76 4)(pt 51 4))
		(line (pt 47 8)(pt 0 8))
		(line (pt 76 12)(pt 76 4))
		(line (pt 51 4)(pt 47 8))
		(line (pt 51 12)(pt 47 8))
	)
	(flipy)
	(text "VCC" (rect 12 7 32 17)(font "Arial" (font_size 6)))
	(annotation_block (location)(rect 568 784 648 816))
)
(pin
	(input)
	(rect 256 1448 478 1464)
	(text "INPUT" (rect 7 0 35 10)(font "Arial" (font_size 6)))
	(text "CIF2_I2C_DATA" (rect 135 0 218 12)(font "Arial" ))
	(pt 0 8)
	(drawing
		(line (pt 76 12)(pt 51 12))
		(line (pt 76 4)(pt 51 4))
		(line (pt 47 8)(pt 0 8))
		(line (pt 76 12)(pt 76 4))
		(line (pt 51 4)(pt 47 8))
		(line (pt 51 12)(pt 47 8))
	)
	(flipy)
	(text "VCC" (rect 12 7 32 17)(font "Arial" (font_size 6)))
	(annotation_block (location)(rect 568 816 648 848))
)
(pin
	(input)
	(rect -48 0 120 16)
	(text "INPUT" (rect 133 0 161 10)(font "Arial" (font_size 6)))
	(text "FPGA_CLK" (rect 5 0 61 12)(font "Arial" ))
	(pt 168 8)
	(drawing
		(line (pt 92 12)(pt 117 12))
		(line (pt 92 4)(pt 117 4))
		(line (pt 121 8)(pt 168 8))
		(line (pt 92 12)(pt 92 4))
		(line (pt 117 4)(pt 121 8))
		(line (pt 117 12)(pt 121 8))
	)
	(text "VCC" (rect 136 7 156 17)(font "Arial" (font_size 6)))
	(annotation_block (location)(rect -24 -360 24 -328))
)
(pin
	(input)
	(rect 40 704 208 720)
	(text "INPUT" (rect 133 0 161 10)(font "Arial" (font_size 6)))
	(text "CAM1_D[1]" (rect 5 0 61 12)(font "Arial" ))
	(pt 168 8)
	(drawing
		(line (pt 92 12)(pt 117 12))
		(line (pt 92 4)(pt 117 4))
		(line (pt 121 8)(pt 168 8))
		(line (pt 92 12)(pt 92 4))
		(line (pt 117 4)(pt 121 8))
		(line (pt 117 12)(pt 121 8))
	)
	(text "VCC" (rect 136 7 156 17)(font "Arial" (font_size 6)))
	(annotation_block (location)(rect -8 48 48 64))
)
(pin
	(input)
	(rect -16 1216 152 1232)
	(text "INPUT" (rect 133 0 161 10)(font "Arial" (font_size 6)))
	(text "SW1" (rect 5 0 28 12)(font "Arial" ))
	(pt 168 8)
	(drawing
		(line (pt 92 12)(pt 117 12))
		(line (pt 92 4)(pt 117 4))
		(line (pt 121 8)(pt 168 8))
		(line (pt 92 12)(pt 92 4))
		(line (pt 117 4)(pt 121 8))
		(line (pt 117 12)(pt 121 8))
	)
	(text "VCC" (rect 136 7 156 17)(font "Arial" (font_size 6)))
	(annotation_block (location)(rect -32 560 24 576))
)
(pin
	(input)
	(rect 16 616 184 632)
	(text "INPUT" (rect 133 0 161 10)(font "Arial" (font_size 6)))
	(text "SW3" (rect 5 0 28 12)(font "Arial" ))
	(pt 168 8)
	(drawing
		(line (pt 92 12)(pt 117 12))
		(line (pt 92 4)(pt 117 4))
		(line (pt 121 8)(pt 168 8))
		(line (pt 92 12)(pt 92 4))
		(line (pt 117 4)(pt 121 8))
		(line (pt 117 12)(pt 121 8))
	)
	(text "VCC" (rect 136 7 156 17)(font "Arial" (font_size 6)))
	(annotation_block (location)(rect -72 -40 16 -8))
)
(pin
	(output)
	(rect 504 672 680 688)
	(text "OUTPUT" (rect 1 0 39 10)(font "Arial" (font_size 6)))
	(text "CAM1_PWDN" (rect 90 0 159 12)(font "Arial" ))
	(pt 0 8)
	(drawing
		(line (pt 0 8)(pt 52 8))
		(line (pt 52 4)(pt 78 4))
		(line (pt 52 12)(pt 78 12))
		(line (pt 52 12)(pt 52 4))
		(line (pt 78 4)(pt 82 8))
		(line (pt 82 8)(pt 78 12))
		(line (pt 78 12)(pt 82 8))
	)
	(annotation_block (location)(rect 680 16 728 32))
)
(pin
	(output)
	(rect 504 688 680 704)
	(text "OUTPUT" (rect 1 0 39 10)(font "Arial" (font_size 6)))
	(text "CAM1_RESET" (rect 90 0 160 12)(font "Arial" ))
	(pt 0 8)
	(drawing
		(line (pt 0 8)(pt 52 8))
		(line (pt 52 4)(pt 78 4))
		(line (pt 52 12)(pt 78 12))
		(line (pt 52 12)(pt 52 4))
		(line (pt 78 4)(pt 82 8))
		(line (pt 82 8)(pt 78 12))
		(line (pt 78 12)(pt 82 8))
	)
	(annotation_block (location)(rect 680 32 736 48))
)
(pin
	(output)
	(rect 504 704 680 720)
	(text "OUTPUT" (rect 1 0 39 10)(font "Arial" (font_size 6)))
	(text "CAM2_PWDN" (rect 90 0 159 12)(font "Arial" ))
	(pt 0 8)
	(drawing
		(line (pt 0 8)(pt 52 8))
		(line (pt 52 4)(pt 78 4))
		(line (pt 52 12)(pt 78 12))
		(line (pt 52 12)(pt 52 4))
		(line (pt 78 4)(pt 82 8))
		(line (pt 82 8)(pt 78 12))
		(line (pt 78 12)(pt 82 8))
	)
	(annotation_block (location)(rect 680 48 728 64))
)
(pin
	(output)
	(rect 504 720 680 736)
	(text "OUTPUT" (rect 1 0 39 10)(font "Arial" (font_size 6)))
	(text "CAM2_RESET" (rect 90 0 160 12)(font "Arial" ))
	(pt 0 8)
	(drawing
		(line (pt 0 8)(pt 52 8))
		(line (pt 52 4)(pt 78 4))
		(line (pt 52 12)(pt 78 12))
		(line (pt 52 12)(pt 52 4))
		(line (pt 78 4)(pt 82 8))
		(line (pt 82 8)(pt 78 12))
		(line (pt 78 12)(pt 82 8))
	)
	(annotation_block (location)(rect 680 64 728 80))
)
(pin
	(output)
	(rect 504 736 680 752)
	(text "OUTPUT" (rect 1 0 39 10)(font "Arial" (font_size 6)))
	(text "CIF1_PCLK" (rect 90 0 149 12)(font "Arial" ))
	(pt 0 8)
	(drawing
		(line (pt 0 8)(pt 52 8))
		(line (pt 52 4)(pt 78 4))
		(line (pt 52 12)(pt 78 12))
		(line (pt 52 12)(pt 52 4))
		(line (pt 78 4)(pt 82 8))
		(line (pt 82 8)(pt 78 12))
		(line (pt 78 12)(pt 82 8))
	)
	(annotation_block (location)(rect 760 72 840 104))
)
(pin
	(output)
	(rect 504 752 680 768)
	(text "OUTPUT" (rect 1 0 39 10)(font "Arial" (font_size 6)))
	(text "CIF1_LV" (rect 90 0 134 12)(font "Arial" ))
	(pt 0 8)
	(drawing
		(line (pt 0 8)(pt 52 8))
		(line (pt 52 4)(pt 78 4))
		(line (pt 52 12)(pt 78 12))
		(line (pt 52 12)(pt 52 4))
		(line (pt 78 4)(pt 82 8))
		(line (pt 82 8)(pt 78 12))
		(line (pt 78 12)(pt 82 8))
	)
	(annotation_block (location)(rect 784 144 864 176))
)
(pin
	(output)
	(rect 504 768 680 784)
	(text "OUTPUT" (rect 1 0 39 10)(font "Arial" (font_size 6)))
	(text "CIF1_FV" (rect 90 0 136 12)(font "Arial" ))
	(pt 0 8)
	(drawing
		(line (pt 0 8)(pt 52 8))
		(line (pt 52 4)(pt 78 4))
		(line (pt 52 12)(pt 78 12))
		(line (pt 52 12)(pt 52 4))
		(line (pt 78 4)(pt 82 8))
		(line (pt 82 8)(pt 78 12))
		(line (pt 78 12)(pt 82 8))
	)
	(annotation_block (location)(rect 784 152 864 184))
)
(pin
	(output)
	(rect 504 784 680 800)
	(text "OUTPUT" (rect 1 0 39 10)(font "Arial" (font_size 6)))
	(text "CIF1_DD0" (rect 90 0 143 12)(font "Arial" ))
	(pt 0 8)
	(drawing
		(line (pt 0 8)(pt 52 8))
		(line (pt 52 4)(pt 78 4))
		(line (pt 52 12)(pt 78 12))
		(line (pt 52 12)(pt 52 4))
		(line (pt 78 4)(pt 82 8))
		(line (pt 82 8)(pt 78 12))
		(line (pt 78 12)(pt 82 8))
	)
	(annotation_block (location)(rect 784 176 864 208))
)
(pin
	(output)
	(rect 504 800 680 816)
	(text "OUTPUT" (rect 1 0 39 10)(font "Arial" (font_size 6)))
	(text "CIF1_DD1" (rect 90 0 143 12)(font "Arial" ))
	(pt 0 8)
	(drawing
		(line (pt 0 8)(pt 52 8))
		(line (pt 52 4)(pt 78 4))
		(line (pt 52 12)(pt 78 12))
		(line (pt 52 12)(pt 52 4))
		(line (pt 78 4)(pt 82 8))
		(line (pt 82 8)(pt 78 12))
		(line (pt 78 12)(pt 82 8))
	)
	(annotation_block (location)(rect 784 184 864 216))
)
(pin
	(output)
	(rect 504 816 680 832)
	(text "OUTPUT" (rect 1 0 39 10)(font "Arial" (font_size 6)))
	(text "CIF1_DD2" (rect 90 0 143 12)(font "Arial" ))
	(pt 0 8)
	(drawing
		(line (pt 0 8)(pt 52 8))
		(line (pt 52 4)(pt 78 4))
		(line (pt 52 12)(pt 78 12))
		(line (pt 52 12)(pt 52 4))
		(line (pt 78 4)(pt 82 8))
		(line (pt 82 8)(pt 78 12))
		(line (pt 78 12)(pt 82 8))
	)
	(annotation_block (location)(rect 784 208 864 240))
)
(pin
	(output)
	(rect 504 832 680 848)
	(text "OUTPUT" (rect 1 0 39 10)(font "Arial" (font_size 6)))
	(text "CIF1_DD3" (rect 90 0 143 12)(font "Arial" ))
	(pt 0 8)
	(drawing
		(line (pt 0 8)(pt 52 8))
		(line (pt 52 4)(pt 78 4))
		(line (pt 52 12)(pt 78 12))
		(line (pt 52 12)(pt 52 4))
		(line (pt 78 4)(pt 82 8))
		(line (pt 82 8)(pt 78 12))
		(line (pt 78 12)(pt 82 8))
	)
	(annotation_block (location)(rect 784 216 864 248))
)
(pin
	(output)
	(rect 504 848 680 864)
	(text "OUTPUT" (rect 1 0 39 10)(font "Arial" (font_size 6)))
	(text "CIF1_DD4" (rect 90 0 143 12)(font "Arial" ))
	(pt 0 8)
	(drawing
		(line (pt 0 8)(pt 52 8))
		(line (pt 52 4)(pt 78 4))
		(line (pt 52 12)(pt 78 12))
		(line (pt 52 12)(pt 52 4))
		(line (pt 78 4)(pt 82 8))
		(line (pt 82 8)(pt 78 12))
		(line (pt 78 12)(pt 82 8))
	)
	(annotation_block (location)(rect 784 240 864 272))
)
(pin
	(output)
	(rect 504 864 680 880)
	(text "OUTPUT" (rect 1 0 39 10)(font "Arial" (font_size 6)))
	(text "CIF1_DD5" (rect 90 0 143 12)(font "Arial" ))
	(pt 0 8)
	(drawing
		(line (pt 0 8)(pt 52 8))
		(line (pt 52 4)(pt 78 4))
		(line (pt 52 12)(pt 78 12))
		(line (pt 52 12)(pt 52 4))
		(line (pt 78 4)(pt 82 8))
		(line (pt 82 8)(pt 78 12))
		(line (pt 78 12)(pt 82 8))
	)
	(annotation_block (location)(rect 784 248 864 280))
)
(pin
	(output)
	(rect 504 880 680 896)
	(text "OUTPUT" (rect 1 0 39 10)(font "Arial" (font_size 6)))
	(text "CIF1_DD6" (rect 90 0 143 12)(font "Arial" ))
	(pt 0 8)
	(drawing
		(line (pt 0 8)(pt 52 8))
		(line (pt 52 4)(pt 78 4))
		(line (pt 52 12)(pt 78 12))
		(line (pt 52 12)(pt 52 4))
		(line (pt 78 4)(pt 82 8))
		(line (pt 82 8)(pt 78 12))
		(line (pt 78 12)(pt 82 8))
	)
	(annotation_block (location)(rect 784 272 864 304))
)
(pin
	(output)
	(rect 504 896 680 912)
	(text "OUTPUT" (rect 1 0 39 10)(font "Arial" (font_size 6)))
	(text "CIF1_DD7" (rect 90 0 143 12)(font "Arial" ))
	(pt 0 8)
	(drawing
		(line (pt 0 8)(pt 52 8))
		(line (pt 52 4)(pt 78 4))
		(line (pt 52 12)(pt 78 12))
		(line (pt 52 12)(pt 52 4))
		(line (pt 78 4)(pt 82 8))
		(line (pt 82 8)(pt 78 12))
		(line (pt 78 12)(pt 82 8))
	)
	(annotation_block (location)(rect 784 280 864 312))
)
(pin
	(output)
	(rect 504 912 680 928)
	(text "OUTPUT" (rect 1 0 39 10)(font "Arial" (font_size 6)))
	(text "CAM1_SIOD" (rect 90 0 152 12)(font "Arial" ))
	(pt 0 8)
	(drawing
		(line (pt 0 8)(pt 52 8))
		(line (pt 52 4)(pt 78 4))
		(line (pt 52 12)(pt 78 12))
		(line (pt 52 12)(pt 52 4))
		(line (pt 78 4)(pt 82 8))
		(line (pt 82 8)(pt 78 12))
		(line (pt 78 12)(pt 82 8))
	)
	(annotation_block (location)(rect 784 320 832 336))
)
(pin
	(output)
	(rect 504 928 680 944)
	(text "OUTPUT" (rect 1 0 39 10)(font "Arial" (font_size 6)))
	(text "CAM1_SIOC" (rect 90 0 152 12)(font "Arial" ))
	(pt 0 8)
	(drawing
		(line (pt 0 8)(pt 52 8))
		(line (pt 52 4)(pt 78 4))
		(line (pt 52 12)(pt 78 12))
		(line (pt 52 12)(pt 52 4))
		(line (pt 78 4)(pt 82 8))
		(line (pt 82 8)(pt 78 12))
		(line (pt 78 12)(pt 82 8))
	)
	(annotation_block (location)(rect 784 344 840 360))
)
(pin
	(output)
	(rect 504 944 680 960)
	(text "OUTPUT" (rect 1 0 39 10)(font "Arial" (font_size 6)))
	(text "CIF2_PCLK" (rect 90 0 149 12)(font "Arial" ))
	(pt 0 8)
	(drawing
		(line (pt 0 8)(pt 52 8))
		(line (pt 52 4)(pt 78 4))
		(line (pt 52 12)(pt 78 12))
		(line (pt 52 12)(pt 52 4))
		(line (pt 78 4)(pt 82 8))
		(line (pt 82 8)(pt 78 12))
		(line (pt 78 12)(pt 82 8))
	)
	(annotation_block (location)(rect 784 368 864 400))
)
(pin
	(output)
	(rect 504 960 680 976)
	(text "OUTPUT" (rect 1 0 39 10)(font "Arial" (font_size 6)))
	(text "CIF2_LV" (rect 90 0 134 12)(font "Arial" ))
	(pt 0 8)
	(drawing
		(line (pt 0 8)(pt 52 8))
		(line (pt 52 4)(pt 78 4))
		(line (pt 52 12)(pt 78 12))
		(line (pt 52 12)(pt 52 4))
		(line (pt 78 4)(pt 82 8))
		(line (pt 82 8)(pt 78 12))
		(line (pt 78 12)(pt 82 8))
	)
	(annotation_block (location)(rect 784 384 864 416))
)
(pin
	(output)
	(rect 504 976 680 992)
	(text "OUTPUT" (rect 1 0 39 10)(font "Arial" (font_size 6)))
	(text "CIF2_FV" (rect 90 0 136 12)(font "Arial" ))
	(pt 0 8)
	(drawing
		(line (pt 0 8)(pt 52 8))
		(line (pt 52 4)(pt 78 4))
		(line (pt 52 12)(pt 78 12))
		(line (pt 52 12)(pt 52 4))
		(line (pt 78 4)(pt 82 8))
		(line (pt 82 8)(pt 78 12))
		(line (pt 78 12)(pt 82 8))
	)
	(annotation_block (location)(rect 784 400 864 432))
)
(pin
	(output)
	(rect 504 992 680 1008)
	(text "OUTPUT" (rect 1 0 39 10)(font "Arial" (font_size 6)))
	(text "CIF2_DD0" (rect 90 0 143 12)(font "Arial" ))
	(pt 0 8)
	(drawing
		(line (pt 0 8)(pt 52 8))
		(line (pt 52 4)(pt 78 4))
		(line (pt 52 12)(pt 78 12))
		(line (pt 52 12)(pt 52 4))
		(line (pt 78 4)(pt 82 8))
		(line (pt 82 8)(pt 78 12))
		(line (pt 78 12)(pt 82 8))
	)
	(annotation_block (location)(rect 784 416 864 448))
)
(pin
	(output)
	(rect 504 1008 680 1024)
	(text "OUTPUT" (rect 1 0 39 10)(font "Arial" (font_size 6)))
	(text "CIF2_DD1" (rect 90 0 143 12)(font "Arial" ))
	(pt 0 8)
	(drawing
		(line (pt 0 8)(pt 52 8))
		(line (pt 52 4)(pt 78 4))
		(line (pt 52 12)(pt 78 12))
		(line (pt 52 12)(pt 52 4))
		(line (pt 78 4)(pt 82 8))
		(line (pt 82 8)(pt 78 12))
		(line (pt 78 12)(pt 82 8))
	)
	(annotation_block (location)(rect 784 432 864 464))
)
(pin
	(output)
	(rect 504 1024 680 1040)
	(text "OUTPUT" (rect 1 0 39 10)(font "Arial" (font_size 6)))
	(text "CIF2_DD2" (rect 90 0 143 12)(font "Arial" ))
	(pt 0 8)
	(drawing
		(line (pt 0 8)(pt 52 8))
		(line (pt 52 4)(pt 78 4))
		(line (pt 52 12)(pt 78 12))
		(line (pt 52 12)(pt 52 4))
		(line (pt 78 4)(pt 82 8))
		(line (pt 82 8)(pt 78 12))
		(line (pt 78 12)(pt 82 8))
	)
	(annotation_block (location)(rect 784 448 864 480))
)
(pin
	(output)
	(rect 504 1040 680 1056)
	(text "OUTPUT" (rect 1 0 39 10)(font "Arial" (font_size 6)))
	(text "CIF2_DD3" (rect 90 0 143 12)(font "Arial" ))
	(pt 0 8)
	(drawing
		(line (pt 0 8)(pt 52 8))
		(line (pt 52 4)(pt 78 4))
		(line (pt 52 12)(pt 78 12))
		(line (pt 52 12)(pt 52 4))
		(line (pt 78 4)(pt 82 8))
		(line (pt 82 8)(pt 78 12))
		(line (pt 78 12)(pt 82 8))
	)
	(annotation_block (location)(rect 784 464 864 496))
)
(pin
	(output)
	(rect 504 1056 680 1072)
	(text "OUTPUT" (rect 1 0 39 10)(font "Arial" (font_size 6)))
	(text "CIF2_DD4" (rect 90 0 143 12)(font "Arial" ))
	(pt 0 8)
	(drawing
		(line (pt 0 8)(pt 52 8))
		(line (pt 52 4)(pt 78 4))
		(line (pt 52 12)(pt 78 12))
		(line (pt 52 12)(pt 52 4))
		(line (pt 78 4)(pt 82 8))
		(line (pt 82 8)(pt 78 12))
		(line (pt 78 12)(pt 82 8))
	)
	(annotation_block (location)(rect 784 480 864 512))
)
(pin
	(output)
	(rect 504 1072 680 1088)
	(text "OUTPUT" (rect 1 0 39 10)(font "Arial" (font_size 6)))
	(text "CIF2_DD5" (rect 90 0 143 12)(font "Arial" ))
	(pt 0 8)
	(drawing
		(line (pt 0 8)(pt 52 8))
		(line (pt 52 4)(pt 78 4))
		(line (pt 52 12)(pt 78 12))
		(line (pt 52 12)(pt 52 4))
		(line (pt 78 4)(pt 82 8))
		(line (pt 82 8)(pt 78 12))
		(line (pt 78 12)(pt 82 8))
	)
	(annotation_block (location)(rect 784 496 864 528))
)
(pin
	(output)
	(rect 504 1088 680 1104)
	(text "OUTPUT" (rect 1 0 39 10)(font "Arial" (font_size 6)))
	(text "CIF2_DD6" (rect 90 0 143 12)(font "Arial" ))
	(pt 0 8)
	(drawing
		(line (pt 0 8)(pt 52 8))
		(line (pt 52 4)(pt 78 4))
		(line (pt 52 12)(pt 78 12))
		(line (pt 52 12)(pt 52 4))
		(line (pt 78 4)(pt 82 8))
		(line (pt 82 8)(pt 78 12))
		(line (pt 78 12)(pt 82 8))
	)
	(annotation_block (location)(rect 784 512 864 544))
)
(pin
	(output)
	(rect 504 1104 680 1120)
	(text "OUTPUT" (rect 1 0 39 10)(font "Arial" (font_size 6)))
	(text "CIF2_DD7" (rect 90 0 143 12)(font "Arial" ))
	(pt 0 8)
	(drawing
		(line (pt 0 8)(pt 52 8))
		(line (pt 52 4)(pt 78 4))
		(line (pt 52 12)(pt 78 12))
		(line (pt 52 12)(pt 52 4))
		(line (pt 78 4)(pt 82 8))
		(line (pt 82 8)(pt 78 12))
		(line (pt 78 12)(pt 82 8))
	)
	(annotation_block (location)(rect 784 528 864 560))
)
(pin
	(output)
	(rect 504 656 680 672)
	(text "OUTPUT" (rect 1 0 39 10)(font "Arial" (font_size 6)))
	(text "CAM_XCLKS" (rect 90 0 153 12)(font "Arial" ))
	(pt 0 8)
	(drawing
		(line (pt 0 8)(pt 52 8))
		(line (pt 52 4)(pt 78 4))
		(line (pt 52 12)(pt 78 12))
		(line (pt 52 12)(pt 52 4))
		(line (pt 78 4)(pt 82 8))
		(line (pt 82 8)(pt 78 12))
		(line (pt 78 12)(pt 82 8))
	)
	(annotation_block (location)(rect 680 0 736 16))
)
(pin
	(output)
	(rect 648 72 824 88)
	(text "OUTPUT" (rect 1 0 39 10)(font "Arial" (font_size 6)))
	(text "10MHzclk" (rect 90 0 137 12)(font "Arial" ))
	(pt 0 8)
	(drawing
		(line (pt 0 8)(pt 52 8))
		(line (pt 52 4)(pt 78 4))
		(line (pt 52 12)(pt 78 12))
		(line (pt 52 12)(pt 52 4))
		(line (pt 78 4)(pt 82 8))
		(line (pt 82 8)(pt 78 12))
		(line (pt 78 12)(pt 82 8))
	)
)
(pin
	(output)
	(rect 648 96 824 112)
	(text "OUTPUT" (rect 1 0 39 10)(font "Arial" (font_size 6)))
	(text "1MHzclk" (rect 90 0 131 12)(font "Arial" ))
	(pt 0 8)
	(drawing
		(line (pt 0 8)(pt 52 8))
		(line (pt 52 4)(pt 78 4))
		(line (pt 52 12)(pt 78 12))
		(line (pt 52 12)(pt 52 4))
		(line (pt 78 4)(pt 82 8))
		(line (pt 82 8)(pt 78 12))
		(line (pt 78 12)(pt 82 8))
	)
)
(pin
	(output)
	(rect 2928 32 3104 48)
	(text "OUTPUT" (rect 1 0 39 10)(font "Arial" (font_size 6)))
	(text "SERV1" (rect 90 0 125 12)(font "Arial" ))
	(pt 0 8)
	(drawing
		(line (pt 0 8)(pt 52 8))
		(line (pt 52 4)(pt 78 4))
		(line (pt 52 12)(pt 78 12))
		(line (pt 52 12)(pt 52 4))
		(line (pt 78 4)(pt 82 8))
		(line (pt 82 8)(pt 78 12))
		(line (pt 78 12)(pt 82 8))
	)
	(annotation_block (location)(rect 3192 32 3240 48))
)
(pin
	(output)
	(rect 2928 48 3104 64)
	(text "OUTPUT" (rect 1 0 39 10)(font "Arial" (font_size 6)))
	(text "SERV2" (rect 90 0 125 12)(font "Arial" ))
	(pt 0 8)
	(drawing
		(line (pt 0 8)(pt 52 8))
		(line (pt 52 4)(pt 78 4))
		(line (pt 52 12)(pt 78 12))
		(line (pt 52 12)(pt 52 4))
		(line (pt 78 4)(pt 82 8))
		(line (pt 82 8)(pt 78 12))
		(line (pt 78 12)(pt 82 8))
	)
	(annotation_block (location)(rect 3192 48 3240 64))
)
(pin
	(output)
	(rect 2928 64 3104 80)
	(text "OUTPUT" (rect 1 0 39 10)(font "Arial" (font_size 6)))
	(text "SERV3" (rect 90 0 125 12)(font "Arial" ))
	(pt 0 8)
	(drawing
		(line (pt 0 8)(pt 52 8))
		(line (pt 52 4)(pt 78 4))
		(line (pt 52 12)(pt 78 12))
		(line (pt 52 12)(pt 52 4))
		(line (pt 78 4)(pt 82 8))
		(line (pt 82 8)(pt 78 12))
		(line (pt 78 12)(pt 82 8))
	)
	(annotation_block (location)(rect 3192 64 3240 80))
)
(pin
	(output)
	(rect 2928 80 3104 96)
	(text "OUTPUT" (rect 1 0 39 10)(font "Arial" (font_size 6)))
	(text "SERV4" (rect 90 0 125 12)(font "Arial" ))
	(pt 0 8)
	(drawing
		(line (pt 0 8)(pt 52 8))
		(line (pt 52 4)(pt 78 4))
		(line (pt 52 12)(pt 78 12))
		(line (pt 52 12)(pt 52 4))
		(line (pt 78 4)(pt 82 8))
		(line (pt 82 8)(pt 78 12))
		(line (pt 78 12)(pt 82 8))
	)
	(annotation_block (location)(rect 3192 80 3240 96))
)
(pin
	(output)
	(rect 2928 96 3104 112)
	(text "OUTPUT" (rect 1 0 39 10)(font "Arial" (font_size 6)))
	(text "SERV5" (rect 90 0 125 12)(font "Arial" ))
	(pt 0 8)
	(drawing
		(line (pt 0 8)(pt 52 8))
		(line (pt 52 4)(pt 78 4))
		(line (pt 52 12)(pt 78 12))
		(line (pt 52 12)(pt 52 4))
		(line (pt 78 4)(pt 82 8))
		(line (pt 82 8)(pt 78 12))
		(line (pt 78 12)(pt 82 8))
	)
	(annotation_block (location)(rect 3192 96 3240 112))
)
(pin
	(output)
	(rect 2928 112 3104 128)
	(text "OUTPUT" (rect 1 0 39 10)(font "Arial" (font_size 6)))
	(text "SERV6" (rect 90 0 125 12)(font "Arial" ))
	(pt 0 8)
	(drawing
		(line (pt 0 8)(pt 52 8))
		(line (pt 52 4)(pt 78 4))
		(line (pt 52 12)(pt 78 12))
		(line (pt 52 12)(pt 52 4))
		(line (pt 78 4)(pt 82 8))
		(line (pt 82 8)(pt 78 12))
		(line (pt 78 12)(pt 82 8))
	)
	(annotation_block (location)(rect 3192 112 3240 128))
)
(pin
	(output)
	(rect 2048 544 2224 560)
	(text "OUTPUT" (rect 1 0 39 10)(font "Arial" (font_size 6)))
	(text "LED3" (rect 90 0 117 12)(font "Arial" ))
	(pt 0 8)
	(drawing
		(line (pt 0 8)(pt 52 8))
		(line (pt 52 4)(pt 78 4))
		(line (pt 52 12)(pt 78 12))
		(line (pt 52 12)(pt 52 4))
		(line (pt 78 4)(pt 82 8))
		(line (pt 82 8)(pt 78 12))
		(line (pt 78 12)(pt 82 8))
	)
	(annotation_block (location)(rect 3192 -48 3240 -32))
)
(pin
	(output)
	(rect 2048 512 2224 528)
	(text "OUTPUT" (rect 1 0 39 10)(font "Arial" (font_size 6)))
	(text "LED1" (rect 90 0 117 12)(font "Arial" ))
	(pt 0 8)
	(drawing
		(line (pt 0 8)(pt 52 8))
		(line (pt 52 4)(pt 78 4))
		(line (pt 52 12)(pt 78 12))
		(line (pt 52 12)(pt 52 4))
		(line (pt 78 4)(pt 82 8))
		(line (pt 82 8)(pt 78 12))
		(line (pt 78 12)(pt 82 8))
	)
	(annotation_block (location)(rect 3192 -80 3272 -48))
)
(pin
	(output)
	(rect 2048 528 2224 544)
	(text "OUTPUT" (rect 1 0 39 10)(font "Arial" (font_size 6)))
	(text "LED2" (rect 90 0 117 12)(font "Arial" ))
	(pt 0 8)
	(drawing
		(line (pt 0 8)(pt 52 8))
		(line (pt 52 4)(pt 78 4))
		(line (pt 52 12)(pt 78 12))
		(line (pt 52 12)(pt 52 4))
		(line (pt 78 4)(pt 82 8))
		(line (pt 82 8)(pt 78 12))
		(line (pt 78 12)(pt 82 8))
	)
	(annotation_block (location)(rect 3192 -64 3272 -32))
)
(pin
	(output)
	(rect 2048 496 2224 512)
	(text "OUTPUT" (rect 1 0 39 10)(font "Arial" (font_size 6)))
	(text "LED0" (rect 90 0 117 12)(font "Arial" ))
	(pt 0 8)
	(drawing
		(line (pt 0 8)(pt 52 8))
		(line (pt 52 4)(pt 78 4))
		(line (pt 52 12)(pt 78 12))
		(line (pt 52 12)(pt 52 4))
		(line (pt 78 4)(pt 82 8))
		(line (pt 82 8)(pt 78 12))
		(line (pt 78 12)(pt 82 8))
	)
	(annotation_block (location)(rect 3192 -96 3272 -64))
)
(pin
	(output)
	(rect 2968 16 3144 32)
	(text "OUTPUT" (rect 1 0 39 10)(font "Arial" (font_size 6)))
	(text "CYCLE_ST" (rect 90 0 146 12)(font "Arial" ))
	(pt 0 8)
	(drawing
		(line (pt 0 8)(pt 52 8))
		(line (pt 52 4)(pt 78 4))
		(line (pt 52 12)(pt 78 12))
		(line (pt 52 12)(pt 52 4))
		(line (pt 78 4)(pt 82 8))
		(line (pt 82 8)(pt 78 12))
		(line (pt 78 12)(pt 82 8))
	)
	(annotation_block (location)(rect 3240 -8 3288 8))
)
(symbol
	(rect 128 -8 176 24)
	(text "GLOBAL" (rect 1 0 36 10)(font "Arial" (font_size 6)))
	(text "inst3" (rect 3 21 26 33)(font "Arial" ))
	(port
		(pt 0 16)
		(input)
		(text "IN" (rect 2 7 13 19)(font "Courier New" (bold))(invisible))
		(text "IN" (rect 2 7 13 19)(font "Courier New" (bold))(invisible))
		(line (pt 0 16)(pt 14 16))
	)
	(port
		(pt 48 16)
		(output)
		(text "OUT" (rect 32 7 49 19)(font "Courier New" (bold))(invisible))
		(text "OUT" (rect 32 7 49 19)(font "Courier New" (bold))(invisible))
		(line (pt 32 16)(pt 48 16))
	)
	(drawing
		(line (pt 14 25)(pt 14 7))
		(line (pt 14 7)(pt 32 16))
		(line (pt 14 25)(pt 32 16))
	)
)
(symbol
	(rect 656 32 704 64)
	(text "GLOBAL" (rect 1 0 36 10)(font "Arial" (font_size 6)))
	(text "inst29" (rect 3 21 32 33)(font "Arial" ))
	(port
		(pt 0 16)
		(input)
		(text "IN" (rect 2 7 13 19)(font "Courier New" (bold))(invisible))
		(text "IN" (rect 2 7 13 19)(font "Courier New" (bold))(invisible))
		(line (pt 0 16)(pt 14 16))
	)
	(port
		(pt 48 16)
		(output)
		(text "OUT" (rect 32 7 49 19)(font "Courier New" (bold))(invisible))
		(text "OUT" (rect 32 7 49 19)(font "Courier New" (bold))(invisible))
		(line (pt 32 16)(pt 48 16))
	)
	(drawing
		(line (pt 14 25)(pt 14 7))
		(line (pt 14 7)(pt 32 16))
		(line (pt 14 25)(pt 32 16))
	)
)
(symbol
	(rect 264 -56 520 144)
	(text "altpll0" (rect 111 0 151 16)(font "Arial" (font_size 10)))
	(text "inst14" (rect 8 184 37 196)(font "Arial" ))
	(port
		(pt 0 64)
		(input)
		(text "inclk0" (rect 0 0 31 14)(font "Arial" (font_size 8)))
		(text "inclk0" (rect 4 51 35 65)(font "Arial" (font_size 8)))
		(line (pt 0 64)(pt 40 64))
	)
	(port
		(pt 256 64)
		(output)
		(text "c0" (rect 0 0 14 14)(font "Arial" (font_size 8)))
		(text "c0" (rect 241 51 255 65)(font "Arial" (font_size 8)))
		(line (pt 256 64)(pt 224 64))
	)
	(port
		(pt 256 80)
		(output)
		(text "c1" (rect 0 0 14 14)(font "Arial" (font_size 8)))
		(text "c1" (rect 241 67 255 81)(font "Arial" (font_size 8)))
		(line (pt 256 80)(pt 224 80))
	)
	(port
		(pt 256 96)
		(output)
		(text "c2" (rect 0 0 14 14)(font "Arial" (font_size 8)))
		(text "c2" (rect 241 83 255 97)(font "Arial" (font_size 8)))
		(line (pt 256 96)(pt 224 96))
	)
	(port
		(pt 256 112)
		(output)
		(text "c3" (rect 0 0 14 14)(font "Arial" (font_size 8)))
		(text "c3" (rect 241 99 255 113)(font "Arial" (font_size 8)))
		(line (pt 256 112)(pt 224 112))
	)
	(drawing
		(text "Cyclone III" (rect 195 185 250 197)(font "Arial" ))
		(text "inclk0 frequency: 50.000 MHz" (rect 50 59 197 71)(font "Arial" ))
		(text "Operation Mode: Src Sync Comp" (rect 50 73 212 85)(font "Arial" ))
		(text "Clk " (rect 51 96 71 108)(font "Arial" ))
		(text "Ratio" (rect 73 96 98 108)(font "Arial" ))
		(text "Ph (dg)" (rect 101 96 136 108)(font "Arial" ))
		(text "DC (%)" (rect 136 96 172 108)(font "Arial" ))
		(text "c0" (rect 54 111 65 123)(font "Arial" ))
		(text "1/1" (rect 78 111 93 123)(font "Arial" ))
		(text "0.00" (rect 107 111 128 123)(font "Arial" ))
		(text "50.00" (rect 140 111 167 123)(font "Arial" ))
		(text "c1" (rect 54 126 65 138)(font "Arial" ))
		(text "13/25" (rect 73 126 100 138)(font "Arial" ))
		(text "0.00" (rect 107 126 128 138)(font "Arial" ))
		(text "50.00" (rect 140 126 167 138)(font "Arial" ))
		(text "c2" (rect 54 141 65 153)(font "Arial" ))
		(text "1/5" (rect 78 141 93 153)(font "Arial" ))
		(text "0.00" (rect 107 141 128 153)(font "Arial" ))
		(text "50.00" (rect 140 141 167 153)(font "Arial" ))
		(text "c3" (rect 54 156 65 168)(font "Arial" ))
		(text "1/50" (rect 75 156 96 168)(font "Arial" ))
		(text "0.00" (rect 107 156 128 168)(font "Arial" ))
		(text "50.00" (rect 140 156 167 168)(font "Arial" ))
		(line (pt 0 0)(pt 257 0))
		(line (pt 257 0)(pt 257 201))
		(line (pt 0 201)(pt 257 201))
		(line (pt 0 0)(pt 0 201))
		(line (pt 48 94)(pt 169 94))
		(line (pt 48 108)(pt 169 108))
		(line (pt 48 123)(pt 169 123))
		(line (pt 48 138)(pt 169 138))
		(line (pt 48 153)(pt 169 153))
		(line (pt 48 168)(pt 169 168))
		(line (pt 48 94)(pt 48 168))
		(line (pt 70 94)(pt 70 168)(line_width 3))
		(line (pt 98 94)(pt 98 168)(line_width 3))
		(line (pt 133 94)(pt 133 168)(line_width 3))
		(line (pt 168 94)(pt 168 168))
		(line (pt 40 48)(pt 224 48))
		(line (pt 224 48)(pt 224 184))
		(line (pt 40 184)(pt 224 184))
		(line (pt 40 48)(pt 40 184))
	)
)
(symbol
	(rect 1024 -560 1272 -376)
	(text "altpll2" (rect 107 0 147 16)(font "Arial" (font_size 10)))
	(text "inst20" (rect 8 168 37 180)(font "Arial" ))
	(port
		(pt 0 64)
		(input)
		(text "inclk0" (rect 0 0 31 14)(font "Arial" (font_size 8)))
		(text "inclk0" (rect 4 51 35 65)(font "Arial" (font_size 8)))
		(line (pt 0 64)(pt 40 64))
	)
	(port
		(pt 248 64)
		(output)
		(text "c0" (rect 0 0 14 14)(font "Arial" (font_size 8)))
		(text "c0" (rect 233 51 247 65)(font "Arial" (font_size 8)))
		(line (pt 248 64)(pt 216 64))
	)
	(port
		(pt 248 80)
		(output)
		(text "c1" (rect 0 0 14 14)(font "Arial" (font_size 8)))
		(text "c1" (rect 233 67 247 81)(font "Arial" (font_size 8)))
		(line (pt 248 80)(pt 216 80))
	)
	(port
		(pt 248 96)
		(output)
		(text "c2" (rect 0 0 14 14)(font "Arial" (font_size 8)))
		(text "c2" (rect 233 83 247 97)(font "Arial" (font_size 8)))
		(line (pt 248 96)(pt 216 96))
	)
	(drawing
		(text "Cyclone III" (rect 187 169 242 181)(font "Arial" ))
		(text "inclk0 frequency: 50.000 MHz" (rect 50 59 197 71)(font "Arial" ))
		(text "Operation Mode: Normal" (rect 50 73 169 85)(font "Arial" ))
		(text "Clk " (rect 51 96 71 108)(font "Arial" ))
		(text "Ratio" (rect 81 96 106 108)(font "Arial" ))
		(text "Ph (dg)" (rect 116 96 151 108)(font "Arial" ))
		(text "DC (%)" (rect 151 96 187 108)(font "Arial" ))
		(text "c0" (rect 54 111 65 123)(font "Arial" ))
		(text "1/2" (rect 86 111 101 123)(font "Arial" ))
		(text "0.00" (rect 122 111 143 123)(font "Arial" ))
		(text "50.00" (rect 155 111 182 123)(font "Arial" ))
		(text "c1" (rect 54 126 65 138)(font "Arial" ))
		(text "1/4" (rect 86 126 101 138)(font "Arial" ))
		(text "0.00" (rect 122 126 143 138)(font "Arial" ))
		(text "50.00" (rect 155 126 182 138)(font "Arial" ))
		(text "c2" (rect 54 141 65 153)(font "Arial" ))
		(text "768/3125" (rect 73 141 117 153)(font "Arial" ))
		(text "0.00" (rect 122 141 143 153)(font "Arial" ))
		(text "50.00" (rect 155 141 182 153)(font "Arial" ))
		(line (pt 0 0)(pt 249 0))
		(line (pt 249 0)(pt 249 185))
		(line (pt 0 185)(pt 249 185))
		(line (pt 0 0)(pt 0 185))
		(line (pt 48 94)(pt 184 94))
		(line (pt 48 108)(pt 184 108))
		(line (pt 48 123)(pt 184 123))
		(line (pt 48 138)(pt 184 138))
		(line (pt 48 153)(pt 184 153))
		(line (pt 48 94)(pt 48 153))
		(line (pt 70 94)(pt 70 153)(line_width 3))
		(line (pt 113 94)(pt 113 153)(line_width 3))
		(line (pt 148 94)(pt 148 153)(line_width 3))
		(line (pt 183 94)(pt 183 153))
		(line (pt 40 48)(pt 216 48))
		(line (pt 216 48)(pt 216 168))
		(line (pt 40 168)(pt 216 168))
		(line (pt 40 48)(pt 40 168))
	)
)
(symbol
	(rect 256 632 480 1272)
	(text "PlainCameras-Stereo" (rect 5 0 124 14)(font "Arial" (font_size 8)))
	(text "inst" (rect 8 624 25 636)(font "Arial" ))
	(port
		(pt 0 32)
		(input)
		(text "CAM_RESET" (rect 0 0 71 14)(font "Arial" (font_size 8)))
		(text "CAM_RESET" (rect 21 27 92 41)(font "Arial" (font_size 8)))
		(line (pt 0 32)(pt 16 32))
	)
	(port
		(pt 0 48)
		(input)
		(text "Clk" (rect 0 0 16 14)(font "Arial" (font_size 8)))
		(text "Clk" (rect 21 43 37 57)(font "Arial" (font_size 8)))
		(line (pt 0 48)(pt 16 48))
	)
	(port
		(pt 0 64)
		(input)
		(text "CAM1_D[0]" (rect 0 0 63 14)(font "Arial" (font_size 8)))
		(text "CAM1_D[0]" (rect 21 59 84 73)(font "Arial" (font_size 8)))
		(line (pt 0 64)(pt 16 64))
	)
	(port
		(pt 0 80)
		(input)
		(text "CAM1_D[1]" (rect 0 0 63 14)(font "Arial" (font_size 8)))
		(text "CAM1_D[1]" (rect 21 75 84 89)(font "Arial" (font_size 8)))
		(line (pt 0 80)(pt 16 80))
	)
	(port
		(pt 0 96)
		(input)
		(text "CAM1_D[2]" (rect 0 0 63 14)(font "Arial" (font_size 8)))
		(text "CAM1_D[2]" (rect 21 91 84 105)(font "Arial" (font_size 8)))
		(line (pt 0 96)(pt 16 96))
	)
	(port
		(pt 0 112)
		(input)
		(text "CAM1_D[3]" (rect 0 0 63 14)(font "Arial" (font_size 8)))
		(text "CAM1_D[3]" (rect 21 107 84 121)(font "Arial" (font_size 8)))
		(line (pt 0 112)(pt 16 112))
	)
	(port
		(pt 0 128)
		(input)
		(text "CAM1_D[4]" (rect 0 0 63 14)(font "Arial" (font_size 8)))
		(text "CAM1_D[4]" (rect 21 123 84 137)(font "Arial" (font_size 8)))
		(line (pt 0 128)(pt 16 128))
	)
	(port
		(pt 0 144)
		(input)
		(text "CAM1_D[5]" (rect 0 0 63 14)(font "Arial" (font_size 8)))
		(text "CAM1_D[5]" (rect 21 139 84 153)(font "Arial" (font_size 8)))
		(line (pt 0 144)(pt 16 144))
	)
	(port
		(pt 0 160)
		(input)
		(text "CAM1_D[6]" (rect 0 0 63 14)(font "Arial" (font_size 8)))
		(text "CAM1_D[6]" (rect 21 155 84 169)(font "Arial" (font_size 8)))
		(line (pt 0 160)(pt 16 160))
	)
	(port
		(pt 0 176)
		(input)
		(text "CAM1_D[7]" (rect 0 0 63 14)(font "Arial" (font_size 8)))
		(text "CAM1_D[7]" (rect 21 171 84 185)(font "Arial" (font_size 8)))
		(line (pt 0 176)(pt 16 176))
	)
	(port
		(pt 0 192)
		(input)
		(text "CIF1_MCLK" (rect 0 0 64 14)(font "Arial" (font_size 8)))
		(text "CIF1_MCLK" (rect 21 187 85 201)(font "Arial" (font_size 8)))
		(line (pt 0 192)(pt 16 192))
	)
	(port
		(pt 0 208)
		(input)
		(text "CAM1_PCLK" (rect 0 0 71 14)(font "Arial" (font_size 8)))
		(text "CAM1_PCLK" (rect 21 203 92 217)(font "Arial" (font_size 8)))
		(line (pt 0 208)(pt 16 208))
	)
	(port
		(pt 0 224)
		(input)
		(text "CAM1_VSYNC" (rect 0 0 84 14)(font "Arial" (font_size 8)))
		(text "CAM1_VSYNC" (rect 21 219 105 233)(font "Arial" (font_size 8)))
		(line (pt 0 224)(pt 16 224))
	)
	(port
		(pt 0 240)
		(input)
		(text "CAM1_HREF" (rect 0 0 71 14)(font "Arial" (font_size 8)))
		(text "CAM1_HREF" (rect 21 235 92 249)(font "Arial" (font_size 8)))
		(line (pt 0 240)(pt 16 240))
	)
	(port
		(pt 0 256)
		(input)
		(text "CIF1_I2C_CLK" (rect 0 0 80 14)(font "Arial" (font_size 8)))
		(text "CIF1_I2C_CLK" (rect 21 251 101 265)(font "Arial" (font_size 8)))
		(line (pt 0 256)(pt 16 256))
	)
	(port
		(pt 0 272)
		(input)
		(text "CIF1_I2C_DATA" (rect 0 0 90 14)(font "Arial" (font_size 8)))
		(text "CIF1_I2C_DATA" (rect 21 267 111 281)(font "Arial" (font_size 8)))
		(line (pt 0 272)(pt 16 272))
	)
	(port
		(pt 0 288)
		(input)
		(text "CAM2_D[0]" (rect 0 0 63 14)(font "Arial" (font_size 8)))
		(text "CAM2_D[0]" (rect 21 283 84 297)(font "Arial" (font_size 8)))
		(line (pt 0 288)(pt 16 288))
	)
	(port
		(pt 0 304)
		(input)
		(text "CAM2_D[1]" (rect 0 0 63 14)(font "Arial" (font_size 8)))
		(text "CAM2_D[1]" (rect 21 299 84 313)(font "Arial" (font_size 8)))
		(line (pt 0 304)(pt 16 304))
	)
	(port
		(pt 0 320)
		(input)
		(text "CAM2_D[2]" (rect 0 0 63 14)(font "Arial" (font_size 8)))
		(text "CAM2_D[2]" (rect 21 315 84 329)(font "Arial" (font_size 8)))
		(line (pt 0 320)(pt 16 320))
	)
	(port
		(pt 0 336)
		(input)
		(text "CAM2_D[3]" (rect 0 0 63 14)(font "Arial" (font_size 8)))
		(text "CAM2_D[3]" (rect 21 331 84 345)(font "Arial" (font_size 8)))
		(line (pt 0 336)(pt 16 336))
	)
	(port
		(pt 0 352)
		(input)
		(text "CAM2_D[4]" (rect 0 0 63 14)(font "Arial" (font_size 8)))
		(text "CAM2_D[4]" (rect 21 347 84 361)(font "Arial" (font_size 8)))
		(line (pt 0 352)(pt 16 352))
	)
	(port
		(pt 0 368)
		(input)
		(text "CAM2_D[5]" (rect 0 0 63 14)(font "Arial" (font_size 8)))
		(text "CAM2_D[5]" (rect 21 363 84 377)(font "Arial" (font_size 8)))
		(line (pt 0 368)(pt 16 368))
	)
	(port
		(pt 0 384)
		(input)
		(text "CAM2_D[6]" (rect 0 0 63 14)(font "Arial" (font_size 8)))
		(text "CAM2_D[6]" (rect 21 379 84 393)(font "Arial" (font_size 8)))
		(line (pt 0 384)(pt 16 384))
	)
	(port
		(pt 0 400)
		(input)
		(text "CAM2_D[7]" (rect 0 0 63 14)(font "Arial" (font_size 8)))
		(text "CAM2_D[7]" (rect 21 395 84 409)(font "Arial" (font_size 8)))
		(line (pt 0 400)(pt 16 400))
	)
	(port
		(pt 0 416)
		(input)
		(text "CIF2_MCLK" (rect 0 0 64 14)(font "Arial" (font_size 8)))
		(text "CIF2_MCLK" (rect 21 411 85 425)(font "Arial" (font_size 8)))
		(line (pt 0 416)(pt 16 416))
	)
	(port
		(pt 0 432)
		(input)
		(text "CAM2_PCLK" (rect 0 0 71 14)(font "Arial" (font_size 8)))
		(text "CAM2_PCLK" (rect 21 427 92 441)(font "Arial" (font_size 8)))
		(line (pt 0 432)(pt 16 432))
	)
	(port
		(pt 0 448)
		(input)
		(text "CAM2_VSYNC" (rect 0 0 84 14)(font "Arial" (font_size 8)))
		(text "CAM2_VSYNC" (rect 21 443 105 457)(font "Arial" (font_size 8)))
		(line (pt 0 448)(pt 16 448))
	)
	(port
		(pt 0 464)
		(input)
		(text "CAM2_HREF" (rect 0 0 71 14)(font "Arial" (font_size 8)))
		(text "CAM2_HREF" (rect 21 459 92 473)(font "Arial" (font_size 8)))
		(line (pt 0 464)(pt 16 464))
	)
	(port
		(pt 0 480)
		(input)
		(text "CIF2_I2C_CLK" (rect 0 0 80 14)(font "Arial" (font_size 8)))
		(text "CIF2_I2C_CLK" (rect 21 475 101 489)(font "Arial" (font_size 8)))
		(line (pt 0 480)(pt 16 480))
	)
	(port
		(pt 0 496)
		(input)
		(text "CIF2_I2C_DATA" (rect 0 0 90 14)(font "Arial" (font_size 8)))
		(text "CIF2_I2C_DATA" (rect 21 491 111 505)(font "Arial" (font_size 8)))
		(line (pt 0 496)(pt 16 496))
	)
	(port
		(pt 0 512)
		(input)
		(text "INT_TRAIN" (rect 0 0 60 14)(font "Arial" (font_size 8)))
		(text "INT_TRAIN" (rect 21 507 81 521)(font "Arial" (font_size 8)))
		(line (pt 0 512)(pt 16 512))
	)
	(port
		(pt 0 528)
		(input)
		(text "Extern_TRAIN" (rect 0 0 79 14)(font "Arial" (font_size 8)))
		(text "Extern_TRAIN" (rect 21 523 100 537)(font "Arial" (font_size 8)))
		(line (pt 0 528)(pt 16 528))
	)
	(port
		(pt 0 544)
		(input)
		(text "Extern_U[7..0]" (rect 0 0 80 14)(font "Arial" (font_size 8)))
		(text "Extern_U[7..0]" (rect 21 539 101 553)(font "Arial" (font_size 8)))
		(line (pt 0 544)(pt 16 544)(line_width 3))
	)
	(port
		(pt 0 560)
		(input)
		(text "Extern_V[7..0]" (rect 0 0 81 14)(font "Arial" (font_size 8)))
		(text "Extern_V[7..0]" (rect 21 555 102 569)(font "Arial" (font_size 8)))
		(line (pt 0 560)(pt 16 560)(line_width 3))
	)
	(port
		(pt 0 576)
		(input)
		(text "Camera_SEL" (rect 0 0 73 14)(font "Arial" (font_size 8)))
		(text "Camera_SEL" (rect 21 571 94 585)(font "Arial" (font_size 8)))
		(line (pt 0 576)(pt 16 576))
	)
	(port
		(pt 0 592)
		(input)
		(text "TPATTERN_" (rect 0 0 68 14)(font "Arial" (font_size 8)))
		(text "TPATTERN_" (rect 21 587 89 601)(font "Arial" (font_size 8)))
		(line (pt 0 592)(pt 16 592))
	)
	(port
		(pt 224 32)
		(output)
		(text "CAM_XCLKS" (rect 0 0 74 14)(font "Arial" (font_size 8)))
		(text "CAM_XCLKS" (rect 129 27 203 41)(font "Arial" (font_size 8)))
		(line (pt 224 32)(pt 208 32))
	)
	(port
		(pt 224 48)
		(output)
		(text "CAM1_PWDN" (rect 0 0 76 14)(font "Arial" (font_size 8)))
		(text "CAM1_PWDN" (rect 127 43 203 57)(font "Arial" (font_size 8)))
		(line (pt 224 48)(pt 208 48))
	)
	(port
		(pt 224 64)
		(output)
		(text "CAM1_RESET" (rect 0 0 79 14)(font "Arial" (font_size 8)))
		(text "CAM1_RESET" (rect 124 59 203 73)(font "Arial" (font_size 8)))
		(line (pt 224 64)(pt 208 64))
	)
	(port
		(pt 224 80)
		(output)
		(text "CAM2_PWDN" (rect 0 0 76 14)(font "Arial" (font_size 8)))
		(text "CAM2_PWDN" (rect 127 75 203 89)(font "Arial" (font_size 8)))
		(line (pt 224 80)(pt 208 80))
	)
	(port
		(pt 224 96)
		(output)
		(text "CAM2_RESET" (rect 0 0 79 14)(font "Arial" (font_size 8)))
		(text "CAM2_RESET" (rect 124 91 203 105)(font "Arial" (font_size 8)))
		(line (pt 224 96)(pt 208 96))
	)
	(port
		(pt 224 112)
		(output)
		(text "CIF1_PCLK" (rect 0 0 62 14)(font "Arial" (font_size 8)))
		(text "CIF1_PCLK" (rect 141 107 203 121)(font "Arial" (font_size 8)))
		(line (pt 224 112)(pt 208 112))
	)
	(port
		(pt 224 128)
		(output)
		(text "CIF1_LV" (rect 0 0 48 14)(font "Arial" (font_size 8)))
		(text "CIF1_LV" (rect 155 123 203 137)(font "Arial" (font_size 8)))
		(line (pt 224 128)(pt 208 128))
	)
	(port
		(pt 224 144)
		(output)
		(text "CIF1_FV" (rect 0 0 48 14)(font "Arial" (font_size 8)))
		(text "CIF1_FV" (rect 155 139 203 153)(font "Arial" (font_size 8)))
		(line (pt 224 144)(pt 208 144))
	)
	(port
		(pt 224 160)
		(output)
		(text "CIF1_DD0" (rect 0 0 55 14)(font "Arial" (font_size 8)))
		(text "CIF1_DD0" (rect 148 155 203 169)(font "Arial" (font_size 8)))
		(line (pt 224 160)(pt 208 160))
	)
	(port
		(pt 224 176)
		(output)
		(text "CIF1_DD1" (rect 0 0 55 14)(font "Arial" (font_size 8)))
		(text "CIF1_DD1" (rect 148 171 203 185)(font "Arial" (font_size 8)))
		(line (pt 224 176)(pt 208 176))
	)
	(port
		(pt 224 192)
		(output)
		(text "CIF1_DD2" (rect 0 0 55 14)(font "Arial" (font_size 8)))
		(text "CIF1_DD2" (rect 148 187 203 201)(font "Arial" (font_size 8)))
		(line (pt 224 192)(pt 208 192))
	)
	(port
		(pt 224 208)
		(output)
		(text "CIF1_DD3" (rect 0 0 55 14)(font "Arial" (font_size 8)))
		(text "CIF1_DD3" (rect 148 203 203 217)(font "Arial" (font_size 8)))
		(line (pt 224 208)(pt 208 208))
	)
	(port
		(pt 224 224)
		(output)
		(text "CIF1_DD4" (rect 0 0 55 14)(font "Arial" (font_size 8)))
		(text "CIF1_DD4" (rect 148 219 203 233)(font "Arial" (font_size 8)))
		(line (pt 224 224)(pt 208 224))
	)
	(port
		(pt 224 240)
		(output)
		(text "CIF1_DD5" (rect 0 0 55 14)(font "Arial" (font_size 8)))
		(text "CIF1_DD5" (rect 148 235 203 249)(font "Arial" (font_size 8)))
		(line (pt 224 240)(pt 208 240))
	)
	(port
		(pt 224 256)
		(output)
		(text "CIF1_DD6" (rect 0 0 55 14)(font "Arial" (font_size 8)))
		(text "CIF1_DD6" (rect 148 251 203 265)(font "Arial" (font_size 8)))
		(line (pt 224 256)(pt 208 256))
	)
	(port
		(pt 224 272)
		(output)
		(text "CIF1_DD7" (rect 0 0 55 14)(font "Arial" (font_size 8)))
		(text "CIF1_DD7" (rect 148 267 203 281)(font "Arial" (font_size 8)))
		(line (pt 224 272)(pt 208 272))
	)
	(port
		(pt 224 288)
		(output)
		(text "CAM1_SIOD" (rect 0 0 69 14)(font "Arial" (font_size 8)))
		(text "CAM1_SIOD" (rect 134 283 203 297)(font "Arial" (font_size 8)))
		(line (pt 224 288)(pt 208 288))
	)
	(port
		(pt 224 304)
		(output)
		(text "CAM1_SIOC" (rect 0 0 69 14)(font "Arial" (font_size 8)))
		(text "CAM1_SIOC" (rect 134 299 203 313)(font "Arial" (font_size 8)))
		(line (pt 224 304)(pt 208 304))
	)
	(port
		(pt 224 320)
		(output)
		(text "CIF2_PCLK" (rect 0 0 62 14)(font "Arial" (font_size 8)))
		(text "CIF2_PCLK" (rect 141 315 203 329)(font "Arial" (font_size 8)))
		(line (pt 224 320)(pt 208 320))
	)
	(port
		(pt 224 336)
		(output)
		(text "CIF2_LV" (rect 0 0 48 14)(font "Arial" (font_size 8)))
		(text "CIF2_LV" (rect 155 331 203 345)(font "Arial" (font_size 8)))
		(line (pt 224 336)(pt 208 336))
	)
	(port
		(pt 224 352)
		(output)
		(text "CIF2_FV" (rect 0 0 48 14)(font "Arial" (font_size 8)))
		(text "CIF2_FV" (rect 155 347 203 361)(font "Arial" (font_size 8)))
		(line (pt 224 352)(pt 208 352))
	)
	(port
		(pt 224 368)
		(output)
		(text "CIF2_DD0" (rect 0 0 55 14)(font "Arial" (font_size 8)))
		(text "CIF2_DD0" (rect 148 363 203 377)(font "Arial" (font_size 8)))
		(line (pt 224 368)(pt 208 368))
	)
	(port
		(pt 224 384)
		(output)
		(text "CIF2_DD1" (rect 0 0 55 14)(font "Arial" (font_size 8)))
		(text "CIF2_DD1" (rect 148 379 203 393)(font "Arial" (font_size 8)))
		(line (pt 224 384)(pt 208 384))
	)
	(port
		(pt 224 400)
		(output)
		(text "CIF2_DD2" (rect 0 0 55 14)(font "Arial" (font_size 8)))
		(text "CIF2_DD2" (rect 148 395 203 409)(font "Arial" (font_size 8)))
		(line (pt 224 400)(pt 208 400))
	)
	(port
		(pt 224 416)
		(output)
		(text "CIF2_DD3" (rect 0 0 55 14)(font "Arial" (font_size 8)))
		(text "CIF2_DD3" (rect 148 411 203 425)(font "Arial" (font_size 8)))
		(line (pt 224 416)(pt 208 416))
	)
	(port
		(pt 224 432)
		(output)
		(text "CIF2_DD4" (rect 0 0 55 14)(font "Arial" (font_size 8)))
		(text "CIF2_DD4" (rect 148 427 203 441)(font "Arial" (font_size 8)))
		(line (pt 224 432)(pt 208 432))
	)
	(port
		(pt 224 448)
		(output)
		(text "CIF2_DD5" (rect 0 0 55 14)(font "Arial" (font_size 8)))
		(text "CIF2_DD5" (rect 148 443 203 457)(font "Arial" (font_size 8)))
		(line (pt 224 448)(pt 208 448))
	)
	(port
		(pt 224 464)
		(output)
		(text "CIF2_DD6" (rect 0 0 55 14)(font "Arial" (font_size 8)))
		(text "CIF2_DD6" (rect 148 459 203 473)(font "Arial" (font_size 8)))
		(line (pt 224 464)(pt 208 464))
	)
	(port
		(pt 224 480)
		(output)
		(text "CIF2_DD7" (rect 0 0 55 14)(font "Arial" (font_size 8)))
		(text "CIF2_DD7" (rect 148 475 203 489)(font "Arial" (font_size 8)))
		(line (pt 224 480)(pt 208 480))
	)
	(port
		(pt 224 496)
		(output)
		(text "Calculate" (rect 0 0 51 14)(font "Arial" (font_size 8)))
		(text "Calculate" (rect 152 491 203 505)(font "Arial" (font_size 8)))
		(line (pt 224 496)(pt 208 496))
	)
	(drawing
		(rectangle (rect 16 16 208 624))
	)
)
(symbol
	(rect 2640 -8 2912 184)
	(text "ServoController" (rect 5 0 93 14)(font "Arial" (font_size 8)))
	(text "inst13" (rect 8 176 37 188)(font "Arial" ))
	(port
		(pt 0 32)
		(input)
		(text "Clk" (rect 0 0 16 14)(font "Arial" (font_size 8)))
		(text "Clk" (rect 21 27 37 41)(font "Arial" (font_size 8)))
		(line (pt 0 32)(pt 16 32))
	)
	(port
		(pt 0 48)
		(input)
		(text "aClr" (rect 0 0 22 14)(font "Arial" (font_size 8)))
		(text "aClr" (rect 21 43 43 57)(font "Arial" (font_size 8)))
		(line (pt 0 48)(pt 16 48))
	)
	(port
		(pt 0 64)
		(input)
		(text "PosNeckTilt[12..0]" (rect 0 0 100 14)(font "Arial" (font_size 8)))
		(text "PosNeckTilt[12..0]" (rect 21 59 121 73)(font "Arial" (font_size 8)))
		(line (pt 0 64)(pt 16 64)(line_width 3))
	)
	(port
		(pt 0 80)
		(input)
		(text "PosNeckRot[12..0]" (rect 0 0 103 14)(font "Arial" (font_size 8)))
		(text "PosNeckRot[12..0]" (rect 21 75 124 89)(font "Arial" (font_size 8)))
		(line (pt 0 80)(pt 16 80)(line_width 3))
	)
	(port
		(pt 0 96)
		(input)
		(text "PosEyeLeftRot[12..0]" (rect 0 0 119 14)(font "Arial" (font_size 8)))
		(text "PosEyeLeftRot[12..0]" (rect 21 91 140 105)(font "Arial" (font_size 8)))
		(line (pt 0 96)(pt 16 96)(line_width 3))
	)
	(port
		(pt 0 112)
		(input)
		(text "PosEyeLeftTilt[12..0]" (rect 0 0 115 14)(font "Arial" (font_size 8)))
		(text "PosEyeLeftTilt[12..0]" (rect 21 107 136 121)(font "Arial" (font_size 8)))
		(line (pt 0 112)(pt 16 112)(line_width 3))
	)
	(port
		(pt 0 128)
		(input)
		(text "PosEyeRightRot[12..0]" (rect 0 0 125 14)(font "Arial" (font_size 8)))
		(text "PosEyeRightRot[12..0]" (rect 21 123 146 137)(font "Arial" (font_size 8)))
		(line (pt 0 128)(pt 16 128)(line_width 3))
	)
	(port
		(pt 0 144)
		(input)
		(text "PosEyeRightTilt[12..0]" (rect 0 0 121 14)(font "Arial" (font_size 8)))
		(text "PosEyeRightTilt[12..0]" (rect 21 139 142 153)(font "Arial" (font_size 8)))
		(line (pt 0 144)(pt 16 144)(line_width 3))
	)
	(port
		(pt 272 32)
		(output)
		(text "CycStartMonitor" (rect 0 0 90 14)(font "Arial" (font_size 8)))
		(text "CycStartMonitor" (rect 161 27 251 41)(font "Arial" (font_size 8)))
		(line (pt 272 32)(pt 256 32))
	)
	(port
		(pt 272 48)
		(output)
		(text "PWM1" (rect 0 0 35 14)(font "Arial" (font_size 8)))
		(text "PWM1" (rect 216 43 251 57)(font "Arial" (font_size 8)))
		(line (pt 272 48)(pt 256 48))
	)
	(port
		(pt 272 64)
		(output)
		(text "PWM2" (rect 0 0 35 14)(font "Arial" (font_size 8)))
		(text "PWM2" (rect 216 59 251 73)(font "Arial" (font_size 8)))
		(line (pt 272 64)(pt 256 64))
	)
	(port
		(pt 272 80)
		(output)
		(text "PWM3" (rect 0 0 35 14)(font "Arial" (font_size 8)))
		(text "PWM3" (rect 216 75 251 89)(font "Arial" (font_size 8)))
		(line (pt 272 80)(pt 256 80))
	)
	(port
		(pt 272 96)
		(output)
		(text "PWM4" (rect 0 0 35 14)(font "Arial" (font_size 8)))
		(text "PWM4" (rect 216 91 251 105)(font "Arial" (font_size 8)))
		(line (pt 272 96)(pt 256 96))
	)
	(port
		(pt 272 112)
		(output)
		(text "PWM5" (rect 0 0 35 14)(font "Arial" (font_size 8)))
		(text "PWM5" (rect 216 107 251 121)(font "Arial" (font_size 8)))
		(line (pt 272 112)(pt 256 112))
	)
	(port
		(pt 272 128)
		(output)
		(text "PWM6" (rect 0 0 35 14)(font "Arial" (font_size 8)))
		(text "PWM6" (rect 216 123 251 137)(font "Arial" (font_size 8)))
		(line (pt 272 128)(pt 256 128))
	)
	(drawing
		(rectangle (rect 16 16 256 176))
	)
)
(connector
	(pt 232 592)
	(pt 232 680)
)
(connector
	(pt 232 680)
	(pt 256 680)
)
(connector
	(pt 208 696)
	(pt 256 696)
)
(connector
	(pt 208 712)
	(pt 256 712)
)
(connector
	(pt 208 728)
	(pt 256 728)
)
(connector
	(pt 208 744)
	(pt 256 744)
)
(connector
	(pt 208 760)
	(pt 256 760)
)
(connector
	(pt 208 776)
	(pt 256 776)
)
(connector
	(pt 208 792)
	(pt 256 792)
)
(connector
	(pt 208 808)
	(pt 256 808)
)
(connector
	(pt 208 840)
	(pt 256 840)
)
(connector
	(pt 208 856)
	(pt 256 856)
)
(connector
	(pt 208 872)
	(pt 256 872)
)
(connector
	(pt 208 920)
	(pt 256 920)
)
(connector
	(pt 208 936)
	(pt 256 936)
)
(connector
	(pt 208 952)
	(pt 256 952)
)
(connector
	(pt 208 968)
	(pt 256 968)
)
(connector
	(pt 208 984)
	(pt 256 984)
)
(connector
	(pt 208 1000)
	(pt 256 1000)
)
(connector
	(pt 208 1016)
	(pt 256 1016)
)
(connector
	(pt 208 1032)
	(pt 256 1032)
)
(connector
	(pt 208 1064)
	(pt 256 1064)
)
(connector
	(pt 208 1080)
	(pt 256 1080)
)
(connector
	(pt 208 1096)
	(pt 256 1096)
)
(connector
	(text "Internal_Train" (rect 178 1128 244 1140)(font "Arial" ))
	(pt 168 1144)
	(pt 256 1144)
)
(connector
	(text "External_TRAIN" (rect 178 1144 257 1156)(font "Arial" ))
	(pt 168 1160)
	(pt 256 1160)
)
(connector
	(text "Extern_U[7..0]" (rect 178 1160 249 1172)(font "Arial" ))
	(pt 168 1176)
	(pt 256 1176)
	(bus)
)
(connector
	(text "Extern_V[7..0]" (rect 178 1176 248 1188)(font "Arial" ))
	(pt 168 1192)
	(pt 256 1192)
	(bus)
)
(connector
	(text "camera_SEL" (rect 178 1192 240 1204)(font "Arial" ))
	(pt 168 1208)
	(pt 256 1208)
)
(connector
	(text "TPattern_bar" (rect 178 1208 240 1220)(font "Arial" ))
	(pt 152 1224)
	(pt 256 1224)
)
(connector
	(pt 480 680)
	(pt 504 680)
)
(connector
	(pt 480 696)
	(pt 504 696)
)
(connector
	(pt 480 712)
	(pt 504 712)
)
(connector
	(pt 480 728)
	(pt 504 728)
)
(connector
	(pt 480 744)
	(pt 504 744)
)
(connector
	(pt 480 760)
	(pt 504 760)
)
(connector
	(pt 480 776)
	(pt 504 776)
)
(connector
	(pt 480 792)
	(pt 504 792)
)
(connector
	(pt 480 808)
	(pt 504 808)
)
(connector
	(pt 480 824)
	(pt 504 824)
)
(connector
	(pt 480 840)
	(pt 504 840)
)
(connector
	(pt 480 856)
	(pt 504 856)
)
(connector
	(pt 480 872)
	(pt 504 872)
)
(connector
	(pt 480 888)
	(pt 504 888)
)
(connector
	(pt 480 904)
	(pt 504 904)
)
(connector
	(pt 480 920)
	(pt 504 920)
)
(connector
	(pt 480 936)
	(pt 504 936)
)
(connector
	(pt 480 952)
	(pt 504 952)
)
(connector
	(pt 480 968)
	(pt 504 968)
)
(connector
	(pt 480 984)
	(pt 504 984)
)
(connector
	(pt 480 1000)
	(pt 504 1000)
)
(connector
	(pt 480 1016)
	(pt 504 1016)
)
(connector
	(pt 480 1032)
	(pt 504 1032)
)
(connector
	(pt 480 1048)
	(pt 504 1048)
)
(connector
	(pt 480 1064)
	(pt 504 1064)
)
(connector
	(pt 480 1080)
	(pt 504 1080)
)
(connector
	(pt 480 1096)
	(pt 504 1096)
)
(connector
	(pt 480 1112)
	(pt 504 1112)
)
(connector
	(pt 480 664)
	(pt 504 664)
)
(connector
	(pt 256 664)
	(pt 216 664)
)
(connector
	(pt 216 664)
	(pt 216 624)
)
(connector
	(pt 184 624)
	(pt 216 624)
)
(connector
	(pt 128 8)
	(pt 120 8)
)
(connector
	(pt 576 104)
	(pt 648 104)
)
(connector
	(text "Clk" (rect 752 32 768 44)(font "Arial" ))
	(pt 656 48)
	(pt 600 48)
)
(connector
	(pt 704 48)
	(pt 832 48)
)
(connector
	(pt 592 80)
	(pt 648 80)
)
(connector
	(pt 592 80)
	(pt 592 40)
)
(connector
	(pt 600 48)
	(pt 600 24)
)
(connector
	(text "FPGA_50MHzCLK" (rect 178 -8 267 4)(font "Arial" ))
	(pt 176 8)
	(pt 264 8)
)
(connector
	(pt 520 24)
	(pt 600 24)
)
(connector
	(pt 520 40)
	(pt 592 40)
)
(connector
	(pt 520 56)
	(pt 576 56)
)
(connector
	(pt 520 8)
	(pt 616 8)
)
(connector
	(pt 576 56)
	(pt 576 104)
)
(connector
	(pt 232 592)
	(pt 832 592)
)
(connector
	(pt 832 592)
	(pt 832 48)
)
(connector
	(pt 616 -496)
	(pt 1024 -496)
)
(connector
	(pt 1272 -496)
	(pt 1360 -496)
)
(connector
	(pt 1272 -480)
	(pt 1352 -480)
)
(connector
	(text "12_288MHz" (rect 1274 -480 1330 -468)(font "Arial" ))
	(pt 1272 -464)
	(pt 1488 -464)
)
(connector
	(text "OUT_LED[0]" (rect 1986 488 2048 500)(font "Arial" ))
	(pt 2048 504)
	(pt 1976 504)
)
(connector
	(text "OUT_LED[1]" (rect 1986 504 2048 516)(font "Arial" ))
	(pt 1976 520)
	(pt 2048 520)
)
(connector
	(text "OUT_LED[2]" (rect 1986 520 2048 532)(font "Arial" ))
	(pt 1976 536)
	(pt 2048 536)
)
(connector
	(text "OUT_LED[3]" (rect 1986 536 2048 548)(font "Arial" ))
	(pt 1976 552)
	(pt 2048 552)
)
(connector
	(pt 616 -328)
	(pt 2536 -328)
)
(connector
	(pt 2536 -328)
	(pt 2536 24)
)
(connector
	(pt 616 -496)
	(pt 616 -328)
)
(connector
	(pt 616 -328)
	(pt 616 8)
)
(connector
	(pt 2536 24)
	(pt 2640 24)
)
(connector
	(pt 2912 40)
	(pt 2928 40)
)
(connector
	(pt 2912 56)
	(pt 2928 56)
)
(connector
	(pt 2912 72)
	(pt 2928 72)
)
(connector
	(pt 2912 88)
	(pt 2928 88)
)
(connector
	(pt 2912 104)
	(pt 2928 104)
)
(connector
	(pt 2912 120)
	(pt 2928 120)
)
(connector
	(pt 2912 24)
	(pt 2968 24)
)
(connector
	(pt 2640 40)
	(pt 2520 40)
)
(junction (pt 616 -328))
(text "NOT USED INPUTS" (rect 256 1464 361 1478)(font "Arial" (font_size 8)))
(text "DATA BYTE" (rect 40 -712 109 -698)(font "Arial" (font_size 8)))
(text "CAM_RESET for OV7660FSL is low" (rect 40 576 242 590)(font "Arial" (font_size 8)))
(text "for OV7760FSL is HIGH" (rect 40 592 174 606)(font "Arial" (font_size 8)))
(text "PC 05.02.10 SW3 is used to control" (rect 40 560 240 574)(font "Arial" (font_size 8)))
