<session jtag_chain="USB-Blaster [USB-0]" jtag_device="@1: EP3C25/EP4CE22 (0x020F30DD)" sof_file="DE0_NANO_camera.sof">
  <display_tree gui_logging_enabled="0">
    <display_branch instance="auto_signaltap_0" log="USE_GLOBAL_TEMP" signal_set="USE_GLOBAL_TEMP" trigger="USE_GLOBAL_TEMP"/>
  </display_tree>
  <instance entity_name="sld_signaltap" is_auto_node="yes" is_expanded="true" name="auto_signaltap_0" source_file="sld_signaltap.vhd">
    <node_ip_info instance_id="0" mfg_id="110" node_id="0" version="6"/>
    <signal_set global_temp="1" is_expanded="true" name="signal_set: 2014/10/22 18:30:56  #0">
      <clock name="CLOCK_100" polarity="posedge" tap_mode="classic"/>
      <config ram_type="AUTO" reserved_data_nodes="0" reserved_storage_qualifier_nodes="0" reserved_trigger_nodes="0" sample_depth="256" trigger_in_enable="no" trigger_out_enable="no"/>
      <top_entity/>
      <signal_vec>
        <trigger_input_vec>
          <wire name="CAM_MCLK" tap_mode="classic"/>
          <wire name="CAM_PCLK" tap_mode="classic"/>
          <wire name="PlainCameras:inst1|Clk" tap_mode="classic"/>
        </trigger_input_vec>
        <data_input_vec>
          <wire name="CAM_MCLK" tap_mode="classic"/>
          <wire name="CAM_PCLK" tap_mode="classic"/>
          <wire name="PlainCameras:inst1|Clk" tap_mode="classic"/>
        </data_input_vec>
        <storage_qualifier_input_vec>
          <wire name="CAM_MCLK" tap_mode="classic"/>
          <wire name="CAM_PCLK" tap_mode="classic"/>
          <wire name="PlainCameras:inst1|Clk" tap_mode="classic"/>
        </storage_qualifier_input_vec>
      </signal_vec>
      <presentation>
        <unified_setup_data_view>
          <node data_index="0" duplicate_name_allowed="false" is_data_input="true" is_node_valid="true" is_storage_input="true" is_trigger_input="true" level-0="rising edge" name="CAM_MCLK" pwr_level-0="dont_care" pwr_storage-0="dont_care" pwr_storage-1="dont_care" pwr_storage-2="dont_care" storage-0="dont_care" storage-1="dont_care" storage-2="dont_care" storage_index="0" tap_mode="classic" trigger_index="0" type="unknown"/>
          <node data_index="1" duplicate_name_allowed="false" is_data_input="true" is_node_valid="true" is_storage_input="true" is_trigger_input="true" level-0="dont_care" name="CAM_PCLK" pwr_level-0="dont_care" pwr_storage-0="dont_care" pwr_storage-1="dont_care" pwr_storage-2="dont_care" storage-0="dont_care" storage-1="dont_care" storage-2="dont_care" storage_index="1" tap_mode="classic" trigger_index="1" type="unknown"/>
          <node data_index="2" duplicate_name_allowed="false" is_data_input="true" is_node_valid="true" is_storage_input="true" is_trigger_input="true" level-0="dont_care" name="PlainCameras:inst1|Clk" pwr_level-0="dont_care" pwr_storage-0="dont_care" pwr_storage-1="dont_care" pwr_storage-2="dont_care" storage-0="dont_care" storage-1="dont_care" storage-2="dont_care" storage_index="2" tap_mode="classic" trigger_index="2" type="unknown"/>
        </unified_setup_data_view>
        <data_view>
          <net data_index="0" duplicate_name_allowed="false" is_data_input="true" is_node_valid="true" is_storage_input="true" is_trigger_input="true" level-0="rising edge" name="CAM_MCLK" pwr_level-0="dont_care" pwr_storage-0="dont_care" pwr_storage-1="dont_care" pwr_storage-2="dont_care" storage-0="dont_care" storage-1="dont_care" storage-2="dont_care" storage_index="0" tap_mode="classic" trigger_index="0" type="unknown"/>
          <net data_index="1" duplicate_name_allowed="false" is_data_input="true" is_node_valid="true" is_storage_input="true" is_trigger_input="true" level-0="dont_care" name="CAM_PCLK" pwr_level-0="dont_care" pwr_storage-0="dont_care" pwr_storage-1="dont_care" pwr_storage-2="dont_care" storage-0="dont_care" storage-1="dont_care" storage-2="dont_care" storage_index="1" tap_mode="classic" trigger_index="1" type="unknown"/>
          <net data_index="2" duplicate_name_allowed="false" is_data_input="true" is_node_valid="true" is_storage_input="true" is_trigger_input="true" level-0="dont_care" name="PlainCameras:inst1|Clk" pwr_level-0="dont_care" pwr_storage-0="dont_care" pwr_storage-1="dont_care" pwr_storage-2="dont_care" storage-0="dont_care" storage-1="dont_care" storage-2="dont_care" storage_index="2" tap_mode="classic" trigger_index="2" type="unknown"/>
        </data_view>
        <setup_view>
          <net data_index="0" duplicate_name_allowed="false" is_data_input="true" is_node_valid="true" is_storage_input="true" is_trigger_input="true" level-0="rising edge" name="CAM_MCLK" pwr_level-0="dont_care" pwr_storage-0="dont_care" pwr_storage-1="dont_care" pwr_storage-2="dont_care" storage-0="dont_care" storage-1="dont_care" storage-2="dont_care" storage_index="0" tap_mode="classic" trigger_index="0" type="unknown"/>
          <net data_index="1" duplicate_name_allowed="false" is_data_input="true" is_node_valid="true" is_storage_input="true" is_trigger_input="true" level-0="dont_care" name="CAM_PCLK" pwr_level-0="dont_care" pwr_storage-0="dont_care" pwr_storage-1="dont_care" pwr_storage-2="dont_care" storage-0="dont_care" storage-1="dont_care" storage-2="dont_care" storage_index="1" tap_mode="classic" trigger_index="1" type="unknown"/>
          <net data_index="2" duplicate_name_allowed="false" is_data_input="true" is_node_valid="true" is_storage_input="true" is_trigger_input="true" level-0="dont_care" name="PlainCameras:inst1|Clk" pwr_level-0="dont_care" pwr_storage-0="dont_care" pwr_storage-1="dont_care" pwr_storage-2="dont_care" storage-0="dont_care" storage-1="dont_care" storage-2="dont_care" storage_index="2" tap_mode="classic" trigger_index="2" type="unknown"/>
        </setup_view>
        <trigger_in_editor/>
        <trigger_out_editor/>
      </presentation>
      <trigger CRC="55BA0C2D" attribute_mem_mode="false" gap_record="true" global_temp="1" is_expanded="true" name="trigger: 2014/10/22 18:30:56  #1" position="pre" power_up_trigger_mode="false" record_data_gap="true" segment_size="64" storage_mode="off" storage_qualifier_disabled="no" storage_qualifier_port_is_pin="false" storage_qualifier_port_name="auto_stp_external_storage_qualifier" storage_qualifier_port_tap_mode="classic" trigger_type="circular">
        <power_up_trigger position="pre" storage_qualifier_disabled="no"/>
        <events use_custom_flow_control="no">
          <level enabled="yes" name="condition1" type="basic">'CAM_MCLK' == rising edge
            <power_up enabled="yes">
            </power_up><op_node/>
          </level>
        </events>
        <storage_qualifier_events>
          <transitional>111
            <pwr_up_transitional>111</pwr_up_transitional>
          </transitional>
          <storage_qualifier_level type="basic">
            <power_up>
            </power_up>
            <op_node/>
          </storage_qualifier_level>
          <storage_qualifier_level type="basic">
            <power_up>
            </power_up>
            <op_node/>
          </storage_qualifier_level>
          <storage_qualifier_level type="basic">
            <power_up>
            </power_up>
            <op_node/>
          </storage_qualifier_level>
        </storage_qualifier_events>
        <log>
          <data global_temp="1" name="log: 2014/10/23 08:55:03  #0" power_up_mode="false" sample_depth="256" trigger_position="32">111100000000000011011111111100100000000001011111111111100000000000011111111111100000000000011011111111100100000000001011111111111100000000000011111111111100000000000011011111111100100000000001011111111111100000000000011111111111100000000000011011111111100100000000011011111111111100000000000011111111111100000000000011011111111100100000000001011111111111100000000000011111111111100000000000011011111111100100000000001011111111111100000000000011111111111100000000000011011111111100100000000001011111111111100000000000011111111111100000000000011011111111100100000000001011111111111100000000000011111111111100000000000011011111111100100000000001011111111111100000000000011111111111100000000000011011111111100100000000001011111111111100000000000011111111111100000000000011</data>
          <extradata>11111111111111111111111111111111T1111111111111111111111111111111111111111111111111111111111111111111111111111111111111111111111111111111111111111111111111111111111111111111111111111111111111111111111111111111111111111111111111111111111111111111111111111111</extradata>
        </log>
      </trigger>
    </signal_set>
    <position_info>
      <single attribute="active tab" value="0"/>
      <single attribute="data horizontal scroll position" value="20"/>
      <single attribute="data vertical scroll position" value="0"/>
      <single attribute="zoom level denominator" value="1"/>
      <single attribute="zoom level numerator" value="4"/>
      <single attribute="zoom offset denominator" value="1"/>
      <single attribute="zoom offset numerator" value="32704"/>
      <multi attribute="timebars" size="2" value="32,39"/>
    </position_info>
  </instance>
  <mnemonics/>
  <static_plugin_mnemonics/>
  <global_info>
    <single attribute="active instance" value="0"/>
    <single attribute="config widget visible" value="1"/>
    <single attribute="data log widget visible" value="1"/>
    <single attribute="hierarchy widget visible" value="1"/>
    <single attribute="instance widget visible" value="1"/>
    <single attribute="jtag widget visible" value="1"/>
    <multi attribute="frame size" size="2" value="1366,706"/>
    <multi attribute="jtag widget size" size="2" value="334,120"/>
  </global_info>
</session>
