/*
WARNING: Do NOT edit the input and output ports in this file in a text
editor if you plan to continue editing the block that represents it in
the Block Editor! File corruption is VERY likely to occur.
*/
/*
Copyright (C) 1991-2015 Altera Corporation. All rights reserved.
Your use of Altera Corporation's design tools, logic functions 
and other software and tools, and its AMPP partner logic 
functions, and any output files from any of the foregoing 
(including device programming or simulation files), and any 
associated documentation or information are expressly subject 
to the terms and conditions of the Altera Program License 
Subscription Agreement, the Altera Quartus Prime License Agreement,
the Altera MegaCore Function License Agreement, or other 
applicable license agreement, including, without limitation, 
that your use is for the sole purpose of programming logic 
devices manufactured by Altera and sold by Altera or its 
authorized distributors.  Please refer to the applicable 
agreement for further details.
*/
(header "graphic" (version "1.4"))
(pin
	(input)
	(rect 64 88 240 104)
	(text "INPUT" (rect 133 0 174 11)(font "Arial" (font_size 6)))
	(text "Clock400K" (rect 5 0 79 14)(font "Arial" ))
	(pt 176 8)
	(drawing
		(line (pt 92 12)(pt 117 12))
		(line (pt 92 4)(pt 117 4))
		(line (pt 121 8)(pt 176 8))
		(line (pt 92 12)(pt 92 4))
		(line (pt 117 4)(pt 121 8))
		(line (pt 117 12)(pt 121 8))
	)
	(text "VCC" (rect 136 7 160 18)(font "Arial" (font_size 6)))
)
(pin
	(input)
	(rect 280 32 512 48)
	(text "INPUT" (rect 189 0 230 11)(font "Arial" (font_size 6)))
	(text "SensorHall[3..0]" (rect 5 0 137 14)(font "Arial" ))
	(pt 232 8)
	(drawing
		(line (pt 148 12)(pt 173 12))
		(line (pt 148 4)(pt 173 4))
		(line (pt 177 8)(pt 232 8))
		(line (pt 148 12)(pt 148 4))
		(line (pt 173 4)(pt 177 8))
		(line (pt 173 12)(pt 177 8))
	)
	(text "VCC" (rect 192 7 216 18)(font "Arial" (font_size 6)))
)
(pin
	(input)
	(rect 312 296 536 312)
	(text "INPUT" (rect 181 0 222 11)(font "Arial" (font_size 6)))
	(text "SpeedLeft[8..0]" (rect 5 0 128 14)(font "Arial" ))
	(pt 224 8)
	(drawing
		(line (pt 140 12)(pt 165 12))
		(line (pt 140 4)(pt 165 4))
		(line (pt 169 8)(pt 224 8))
		(line (pt 140 12)(pt 140 4))
		(line (pt 165 4)(pt 169 8))
		(line (pt 165 12)(pt 169 8))
	)
	(text "VCC" (rect 184 7 208 18)(font "Arial" (font_size 6)))
)
(pin
	(input)
	(rect 312 312 544 328)
	(text "INPUT" (rect 189 0 230 11)(font "Arial" (font_size 6)))
	(text "SpeedRight[8..0]" (rect 5 0 137 14)(font "Arial" ))
	(pt 232 8)
	(drawing
		(line (pt 148 12)(pt 173 12))
		(line (pt 148 4)(pt 173 4))
		(line (pt 177 8)(pt 232 8))
		(line (pt 148 12)(pt 148 4))
		(line (pt 173 4)(pt 177 8))
		(line (pt 173 12)(pt 177 8))
	)
	(text "VCC" (rect 192 7 216 18)(font "Arial" (font_size 6)))
)
(pin
	(input)
	(rect 48 136 224 152)
	(text "INPUT" (rect 133 0 174 11)(font "Arial" (font_size 6)))
	(text "ResetLeft" (rect 5 0 79 14)(font "Arial" ))
	(pt 176 8)
	(drawing
		(line (pt 92 12)(pt 117 12))
		(line (pt 92 4)(pt 117 4))
		(line (pt 121 8)(pt 176 8))
		(line (pt 92 12)(pt 92 4))
		(line (pt 117 4)(pt 121 8))
		(line (pt 117 12)(pt 121 8))
	)
	(text "VCC" (rect 136 7 160 18)(font "Arial" (font_size 6)))
)
(pin
	(input)
	(rect 48 248 224 264)
	(text "INPUT" (rect 133 0 174 11)(font "Arial" (font_size 6)))
	(text "ResetRight" (rect 5 0 87 14)(font "Arial" ))
	(pt 176 8)
	(drawing
		(line (pt 92 12)(pt 117 12))
		(line (pt 92 4)(pt 117 4))
		(line (pt 121 8)(pt 176 8))
		(line (pt 92 12)(pt 92 4))
		(line (pt 117 4)(pt 121 8))
		(line (pt 117 12)(pt 121 8))
	)
	(text "VCC" (rect 136 7 160 18)(font "Arial" (font_size 6)))
)
(pin
	(output)
	(rect 552 16 804 32)
	(text "OUTPUT" (rect 1 0 50 11)(font "Arial" (font_size 6)))
	(text "DistanceLeft[13..0]" (rect 90 0 246 14)(font "Arial" ))
	(pt 0 8)
	(drawing
		(line (pt 0 8)(pt 52 8))
		(line (pt 52 4)(pt 78 4))
		(line (pt 52 12)(pt 78 12))
		(line (pt 52 12)(pt 52 4))
		(line (pt 78 4)(pt 82 8))
		(line (pt 82 8)(pt 78 12))
		(line (pt 78 12)(pt 82 8))
	)
)
(pin
	(output)
	(rect 560 32 821 48)
	(text "OUTPUT" (rect 1 0 50 11)(font "Arial" (font_size 6)))
	(text "DistanceRight[13..0]" (rect 90 0 255 14)(font "Arial" ))
	(pt 0 8)
	(drawing
		(line (pt 0 8)(pt 52 8))
		(line (pt 52 4)(pt 78 4))
		(line (pt 52 12)(pt 78 12))
		(line (pt 52 12)(pt 52 4))
		(line (pt 78 4)(pt 82 8))
		(line (pt 82 8)(pt 78 12))
		(line (pt 78 12)(pt 82 8))
	)
)
(pin
	(output)
	(rect 1080 336 1256 352)
	(text "OUTPUT" (rect 1 0 50 11)(font "Arial" (font_size 6)))
	(text "MotorMode" (rect 90 0 164 14)(font "Arial" ))
	(pt 0 8)
	(drawing
		(line (pt 0 8)(pt 52 8))
		(line (pt 52 4)(pt 78 4))
		(line (pt 52 12)(pt 78 12))
		(line (pt 52 12)(pt 52 4))
		(line (pt 78 4)(pt 82 8))
		(line (pt 82 8)(pt 78 12))
		(line (pt 78 12)(pt 82 8))
	)
)
(pin
	(output)
	(rect 1080 352 1299 368)
	(text "OUTPUT" (rect 1 0 50 11)(font "Arial" (font_size 6)))
	(text "MotorPins[3..0]" (rect 90 0 213 14)(font "Arial" ))
	(pt 0 8)
	(drawing
		(line (pt 0 8)(pt 52 8))
		(line (pt 52 4)(pt 78 4))
		(line (pt 52 12)(pt 78 12))
		(line (pt 52 12)(pt 52 4))
		(line (pt 78 4)(pt 82 8))
		(line (pt 82 8)(pt 78 12))
		(line (pt 78 12)(pt 82 8))
	)
)
(symbol
	(rect 336 64 536 176)
	(text "HallEffectTrigger" (rect 5 0 145 14)(font "Arial" ))
	(text "inst" (rect 8 96 41 110)(font "Arial" ))
	(port
		(pt 0 32)
		(input)
		(text "Clock400K" (rect 0 0 74 14)(font "Arial" ))
		(text "Clock400K" (rect 21 27 95 41)(font "Arial" ))
		(line (pt 0 32)(pt 16 32))
	)
	(port
		(pt 0 48)
		(input)
		(text "HallA" (rect 0 0 41 14)(font "Arial" ))
		(text "HallA" (rect 21 43 62 57)(font "Arial" ))
		(line (pt 0 48)(pt 16 48))
	)
	(port
		(pt 0 64)
		(input)
		(text "HallB" (rect 0 0 41 14)(font "Arial" ))
		(text "HallB" (rect 21 59 62 73)(font "Arial" ))
		(line (pt 0 64)(pt 16 64))
	)
	(port
		(pt 0 80)
		(input)
		(text "Reset" (rect 0 0 41 14)(font "Arial" ))
		(text "Reset" (rect 21 75 62 89)(font "Arial" ))
		(line (pt 0 80)(pt 16 80))
	)
	(port
		(pt 200 32)
		(output)
		(text "Distance[13..0]" (rect 0 0 123 14)(font "Arial" ))
		(text "Distance[13..0]" (rect 75 27 198 41)(font "Arial" ))
		(line (pt 200 32)(pt 184 32)(line_width 3))
	)
	(port
		(pt 200 48)
		(output)
		(text "Speed[8..0]" (rect 0 0 90 14)(font "Arial" ))
		(text "Speed[8..0]" (rect 103 43 193 57)(font "Arial" ))
		(line (pt 200 48)(pt 184 48)(line_width 3))
	)
	(port
		(pt 200 64)
		(output)
		(text "Direction" (rect 0 0 74 14)(font "Arial" ))
		(text "Direction" (rect 117 59 191 73)(font "Arial" ))
		(line (pt 200 64)(pt 184 64))
	)
	(drawing
		(rectangle (rect 16 16 184 96))
	)
)
(symbol
	(rect 336 176 536 288)
	(text "HallEffectTrigger" (rect 5 0 145 14)(font "Arial" ))
	(text "inst1" (rect 8 96 49 110)(font "Arial" ))
	(port
		(pt 0 32)
		(input)
		(text "Clock400K" (rect 0 0 74 14)(font "Arial" ))
		(text "Clock400K" (rect 21 27 95 41)(font "Arial" ))
		(line (pt 0 32)(pt 16 32))
	)
	(port
		(pt 0 48)
		(input)
		(text "HallA" (rect 0 0 41 14)(font "Arial" ))
		(text "HallA" (rect 21 43 62 57)(font "Arial" ))
		(line (pt 0 48)(pt 16 48))
	)
	(port
		(pt 0 64)
		(input)
		(text "HallB" (rect 0 0 41 14)(font "Arial" ))
		(text "HallB" (rect 21 59 62 73)(font "Arial" ))
		(line (pt 0 64)(pt 16 64))
	)
	(port
		(pt 0 80)
		(input)
		(text "Reset" (rect 0 0 41 14)(font "Arial" ))
		(text "Reset" (rect 21 75 62 89)(font "Arial" ))
		(line (pt 0 80)(pt 16 80))
	)
	(port
		(pt 200 32)
		(output)
		(text "Distance[13..0]" (rect 0 0 123 14)(font "Arial" ))
		(text "Distance[13..0]" (rect 75 27 198 41)(font "Arial" ))
		(line (pt 200 32)(pt 184 32)(line_width 3))
	)
	(port
		(pt 200 48)
		(output)
		(text "Speed[8..0]" (rect 0 0 90 14)(font "Arial" ))
		(text "Speed[8..0]" (rect 103 43 193 57)(font "Arial" ))
		(line (pt 200 48)(pt 184 48)(line_width 3))
	)
	(port
		(pt 200 64)
		(output)
		(text "Direction" (rect 0 0 74 14)(font "Arial" ))
		(text "Direction" (rect 117 59 191 73)(font "Arial" ))
		(line (pt 200 64)(pt 184 64))
	)
	(drawing
		(rectangle (rect 16 16 184 96))
	)
)
(symbol
	(rect 600 56 864 168)
	(text "PIDController" (rect 5 0 112 14)(font "Arial" ))
	(text "inst2" (rect 8 96 49 110)(font "Arial" ))
	(port
		(pt 0 32)
		(input)
		(text "Clock400K" (rect 0 0 74 14)(font "Arial" ))
		(text "Clock400K" (rect 21 27 95 41)(font "Arial" ))
		(line (pt 0 32)(pt 16 32))
	)
	(port
		(pt 0 48)
		(input)
		(text "SetPoint[8..0]" (rect 0 0 115 14)(font "Arial" ))
		(text "SetPoint[8..0]" (rect 21 43 136 57)(font "Arial" ))
		(line (pt 0 48)(pt 16 48)(line_width 3))
	)
	(port
		(pt 0 64)
		(input)
		(text "ProcessVariable[8..0]" (rect 0 0 173 14)(font "Arial" ))
		(text "ProcessVariable[8..0]" (rect 21 59 194 73)(font "Arial" ))
		(line (pt 0 64)(pt 16 64)(line_width 3))
	)
	(port
		(pt 264 32)
		(output)
		(text "ControlOutput[7..0]" (rect 0 0 156 14)(font "Arial" ))
		(text "ControlOutput[7..0]" (rect 111 27 267 41)(font "Arial" ))
		(line (pt 264 32)(pt 248 32)(line_width 3))
	)
	(drawing
		(rectangle (rect 16 16 248 96))
	)
)
(symbol
	(rect 600 168 864 280)
	(text "PIDController" (rect 5 0 112 14)(font "Arial" ))
	(text "inst3" (rect 8 96 49 110)(font "Arial" ))
	(port
		(pt 0 32)
		(input)
		(text "Clock400K" (rect 0 0 74 14)(font "Arial" ))
		(text "Clock400K" (rect 21 27 95 41)(font "Arial" ))
		(line (pt 0 32)(pt 16 32))
	)
	(port
		(pt 0 48)
		(input)
		(text "SetPoint[8..0]" (rect 0 0 115 14)(font "Arial" ))
		(text "SetPoint[8..0]" (rect 21 43 136 57)(font "Arial" ))
		(line (pt 0 48)(pt 16 48)(line_width 3))
	)
	(port
		(pt 0 64)
		(input)
		(text "ProcessVariable[8..0]" (rect 0 0 173 14)(font "Arial" ))
		(text "ProcessVariable[8..0]" (rect 21 59 194 73)(font "Arial" ))
		(line (pt 0 64)(pt 16 64)(line_width 3))
	)
	(port
		(pt 264 32)
		(output)
		(text "ControlOutput[7..0]" (rect 0 0 156 14)(font "Arial" ))
		(text "ControlOutput[7..0]" (rect 111 27 267 41)(font "Arial" ))
		(line (pt 264 32)(pt 248 32)(line_width 3))
	)
	(drawing
		(rectangle (rect 16 16 248 96))
	)
)
(symbol
	(rect 648 392 824 472)
	(text "PWMDriver" (rect 5 0 79 14)(font "Arial" ))
	(text "inst4" (rect 8 64 49 78)(font "Arial" ))
	(port
		(pt 0 32)
		(input)
		(text "speed[7..0]" (rect 0 0 90 14)(font "Arial" ))
		(text "speed[7..0]" (rect 21 27 111 41)(font "Arial" ))
		(line (pt 0 32)(pt 16 32)(line_width 3))
	)
	(port
		(pt 0 48)
		(input)
		(text "Clock400K" (rect 0 0 74 14)(font "Arial" ))
		(text "Clock400K" (rect 21 43 95 57)(font "Arial" ))
		(line (pt 0 48)(pt 16 48))
	)
	(port
		(pt 176 32)
		(output)
		(text "enable" (rect 0 0 49 14)(font "Arial" ))
		(text "enable" (rect 114 27 163 41)(font "Arial" ))
		(line (pt 176 32)(pt 160 32))
	)
	(port
		(pt 176 48)
		(output)
		(text "direction" (rect 0 0 74 14)(font "Arial" ))
		(text "direction" (rect 93 43 167 57)(font "Arial" ))
		(line (pt 176 48)(pt 160 48))
	)
	(drawing
		(rectangle (rect 16 16 160 64))
	)
)
(symbol
	(rect 864 312 1064 424)
	(text "MotorDriver" (rect 5 0 95 14)(font "Arial" ))
	(text "inst5" (rect 8 96 49 110)(font "Arial" ))
	(port
		(pt 0 32)
		(input)
		(text "MotorA" (rect 0 0 49 14)(font "Arial" ))
		(text "MotorA" (rect 21 27 70 41)(font "Arial" ))
		(line (pt 0 32)(pt 16 32))
	)
	(port
		(pt 0 48)
		(input)
		(text "MotorADir" (rect 0 0 74 14)(font "Arial" ))
		(text "MotorADir" (rect 21 43 95 57)(font "Arial" ))
		(line (pt 0 48)(pt 16 48))
	)
	(port
		(pt 0 64)
		(input)
		(text "MotorB" (rect 0 0 49 14)(font "Arial" ))
		(text "MotorB" (rect 21 59 70 73)(font "Arial" ))
		(line (pt 0 64)(pt 16 64))
	)
	(port
		(pt 0 80)
		(input)
		(text "MotorBDir" (rect 0 0 74 14)(font "Arial" ))
		(text "MotorBDir" (rect 21 75 95 89)(font "Arial" ))
		(line (pt 0 80)(pt 16 80))
	)
	(port
		(pt 200 32)
		(output)
		(text "Mode" (rect 0 0 33 14)(font "Arial" ))
		(text "Mode" (rect 152 27 185 41)(font "Arial" ))
		(line (pt 200 32)(pt 184 32))
	)
	(port
		(pt 200 48)
		(output)
		(text "MotorOut[3..0]" (rect 0 0 115 14)(font "Arial" ))
		(text "MotorOut[3..0]" (rect 82 43 197 57)(font "Arial" ))
		(line (pt 200 48)(pt 184 48)(line_width 3))
	)
	(drawing
		(rectangle (rect 16 16 184 96))
	)
)
(symbol
	(rect 648 312 824 392)
	(text "PWMDriver" (rect 5 0 79 14)(font "Arial" ))
	(text "inst6" (rect 8 64 49 78)(font "Arial" ))
	(port
		(pt 0 32)
		(input)
		(text "speed[7..0]" (rect 0 0 90 14)(font "Arial" ))
		(text "speed[7..0]" (rect 21 27 111 41)(font "Arial" ))
		(line (pt 0 32)(pt 16 32)(line_width 3))
	)
	(port
		(pt 0 48)
		(input)
		(text "Clock400K" (rect 0 0 74 14)(font "Arial" ))
		(text "Clock400K" (rect 21 43 95 57)(font "Arial" ))
		(line (pt 0 48)(pt 16 48))
	)
	(port
		(pt 176 32)
		(output)
		(text "enable" (rect 0 0 49 14)(font "Arial" ))
		(text "enable" (rect 114 27 163 41)(font "Arial" ))
		(line (pt 176 32)(pt 160 32))
	)
	(port
		(pt 176 48)
		(output)
		(text "direction" (rect 0 0 74 14)(font "Arial" ))
		(text "direction" (rect 93 43 167 57)(font "Arial" ))
		(line (pt 176 48)(pt 160 48))
	)
	(drawing
		(rectangle (rect 16 16 160 64))
	)
)
(connector
	(pt 336 208)
	(pt 320 208)
)
(connector
	(pt 320 208)
	(pt 320 96)
)
(connector
	(text "SensorHall[1]" (rect 264 96 371 110)(font "Arial" ))
	(pt 336 112)
	(pt 264 112)
)
(connector
	(pt 320 96)
	(pt 336 96)
)
(connector
	(text "SensorHall[0]" (rect 264 112 371 126)(font "Arial" ))
	(pt 336 128)
	(pt 264 128)
)
(connector
	(text "SensorHall[2]" (rect 264 208 371 222)(font "Arial" ))
	(pt 336 224)
	(pt 264 224)
)
(connector
	(text "SensorHall[3]" (rect 264 224 371 238)(font "Arial" ))
	(pt 336 240)
	(pt 264 240)
)
(connector
	(pt 536 208)
	(pt 552 208)
	(bus)
)
(connector
	(pt 536 96)
	(pt 544 96)
	(bus)
)
(connector
	(pt 536 224)
	(pt 568 224)
	(bus)
)
(connector
	(pt 568 224)
	(pt 568 232)
	(bus)
)
(connector
	(pt 568 232)
	(pt 600 232)
	(bus)
)
(connector
	(pt 536 112)
	(pt 568 112)
	(bus)
)
(connector
	(pt 568 112)
	(pt 568 120)
	(bus)
)
(connector
	(pt 568 120)
	(pt 600 120)
	(bus)
)
(connector
	(pt 600 88)
	(pt 576 88)
)
(connector
	(pt 576 200)
	(pt 600 200)
)
(connector
	(pt 576 56)
	(pt 576 88)
)
(connector
	(pt 576 88)
	(pt 576 200)
)
(connector
	(pt 544 96)
	(pt 544 24)
	(bus)
)
(connector
	(pt 544 24)
	(pt 552 24)
	(bus)
)
(connector
	(pt 552 40)
	(pt 560 40)
	(bus)
)
(connector
	(pt 552 208)
	(pt 552 40)
	(bus)
)
(connector
	(pt 256 56)
	(pt 576 56)
)
(connector
	(pt 240 96)
	(pt 256 96)
)
(connector
	(pt 256 96)
	(pt 320 96)
)
(connector
	(pt 536 304)
	(pt 584 304)
	(bus)
)
(connector
	(pt 584 304)
	(pt 584 104)
	(bus)
)
(connector
	(pt 584 104)
	(pt 600 104)
	(bus)
)
(connector
	(pt 544 320)
	(pt 592 320)
	(bus)
)
(connector
	(pt 592 320)
	(pt 592 216)
	(bus)
)
(connector
	(pt 592 216)
	(pt 600 216)
	(bus)
)
(connector
	(pt 864 88)
	(pt 904 88)
	(bus)
)
(connector
	(pt 904 88)
	(pt 904 296)
	(bus)
)
(connector
	(pt 864 200)
	(pt 872 200)
	(bus)
)
(connector
	(pt 872 200)
	(pt 872 288)
	(bus)
)
(connector
	(pt 624 288)
	(pt 872 288)
	(bus)
)
(connector
	(pt 624 288)
	(pt 624 424)
	(bus)
)
(connector
	(pt 624 424)
	(pt 648 424)
	(bus)
)
(connector
	(pt 904 296)
	(pt 632 296)
	(bus)
)
(connector
	(pt 632 296)
	(pt 632 344)
	(bus)
)
(connector
	(pt 632 344)
	(pt 648 344)
	(bus)
)
(connector
	(pt 648 440)
	(pt 576 440)
)
(connector
	(pt 576 360)
	(pt 576 440)
)
(connector
	(pt 256 360)
	(pt 576 360)
)
(connector
	(pt 576 360)
	(pt 648 360)
)
(connector
	(pt 256 56)
	(pt 256 96)
)
(connector
	(pt 256 96)
	(pt 256 360)
)
(connector
	(pt 824 344)
	(pt 864 344)
)
(connector
	(pt 824 360)
	(pt 864 360)
)
(connector
	(pt 824 424)
	(pt 832 424)
)
(connector
	(pt 832 424)
	(pt 832 376)
)
(connector
	(pt 832 376)
	(pt 864 376)
)
(connector
	(pt 824 440)
	(pt 848 440)
)
(connector
	(pt 848 440)
	(pt 848 392)
)
(connector
	(pt 864 392)
	(pt 848 392)
)
(connector
	(pt 224 144)
	(pt 336 144)
)
(connector
	(pt 224 256)
	(pt 336 256)
)
(connector
	(pt 1064 344)
	(pt 1080 344)
)
(connector
	(pt 1064 360)
	(pt 1080 360)
	(bus)
)
(junction (pt 320 96))
(junction (pt 576 88))
(junction (pt 256 96))
(junction (pt 576 360))
