{
	"partitions" : [
		{
			"name" : "Top",
			"pins" : [
				{
					"name" : "I2C_SCK",
					"strict" : false
				},
				{
					"name" : "CAM_RESET",
					"strict" : false
				},
				{
					"name" : "DACDAT",
					"strict" : false
				},
				{
					"name" : "SCLK",
					"strict" : false
				},
				{
					"name" : "MOTOR[3]",
					"strict" : false
				},
				{
					"name" : "MOTOR[2]",
					"strict" : false
				},
				{
					"name" : "MOTOR[1]",
					"strict" : false
				},
				{
					"name" : "MOTOR[0]",
					"strict" : false
				},
				{
					"name" : "FRAME",
					"strict" : false
				},
				{
					"name" : "I2C_SDA",
					"strict" : false
				},
				{
					"name" : "SDIN",
					"strict" : false
				},
				{
					"name" : "BCLK",
					"strict" : false
				},
				{
					"name" : "KEY[0]",
					"strict" : false
				},
				{
					"name" : "HALL[2]",
					"strict" : false
				},
				{
					"name" : "HALL[1]",
					"strict" : false
				},
				{
					"name" : "HREF",
					"strict" : false
				},
				{
					"name" : "pixel[2]",
					"strict" : false
				},
				{
					"name" : "pixel[1]",
					"strict" : false
				},
				{
					"name" : "pixel[0]",
					"strict" : false
				},
				{
					"name" : "pixel[3]",
					"strict" : false
				},
				{
					"name" : "pixel[4]",
					"strict" : false
				},
				{
					"name" : "pixel[6]",
					"strict" : false
				},
				{
					"name" : "pixel[5]",
					"strict" : false
				},
				{
					"name" : "pixel[7]",
					"strict" : false
				},
				{
					"name" : "VSYNC",
					"strict" : false
				},
				{
					"name" : "KEY[1]",
					"strict" : false
				},
				{
					"name" : "altera_reserved_tms",
					"strict" : false
				},
				{
					"name" : "altera_reserved_tck",
					"strict" : false
				},
				{
					"name" : "altera_reserved_tdi",
					"strict" : false
				},
				{
					"name" : "altera_reserved_tdo",
					"strict" : false
				}
			]
		}
	]
}